
<svg width="10px" height="10px" viewBox="0 0 10 10" version="1.1" xmlns="http://www.w3.org/2000/svg" xmlns:xlink="http://www.w3.org/1999/xlink">
  <g id="Symbols" stroke="none" stroke-width="1" fill="none" fill-rule="evenodd">
    <g id="icons-/-delete_photo" transform="translate(-7.000000, -7.000000)" fill="#FFFFFF" fill-rule="nonzero">
      <g id="ic_close_24px">
        <g id="Group" transform="translate(7.800000, 7.800000)">
          <polygon id="Shape" points="8.4 0.846 7.554 0 4.2 3.354 0.846 0 0 0.846 3.354 4.2 0 7.554 0.846 8.4 4.2 5.046 7.554 8.4 8.4 7.554 5.046 4.2"></polygon>
        </g>
      </g>
    </g>
  </g>
</svg>
