<?xml version="1.0" encoding="UTF-8"?>
<svg width="16px" height="16px" viewBox="0 0 16 16" version="1.1" xmlns="http://www.w3.org/2000/svg" xmlns:xlink="http://www.w3.org/1999/xlink">
    <!-- Generator: Sketch 50.2 (55047) - http://www.bohemiancoding.com/sketch -->
    <title>ic_help_outline_24px</title>
    <desc>Created with Sketch.</desc>
    <defs></defs>
    <g id="Symbols" stroke="none" stroke-width="1" fill="none" fill-rule="evenodd">
        <g id="Способ-выдачи" transform="translate(-330.000000, -33.000000)" fill="#4A90E2">
            <g id="ic_help_outline_24px" transform="translate(330.000000, 33.000000)">
                <g id="Shape">
                    <path d="M7.2,12.8 L8.8,12.8 L8.8,11.2 L7.2,11.2 L7.2,12.8 Z M8,0 C3.584,0 0,3.584 0,8 C0,12.416 3.584,16 8,16 C12.416,16 16,12.416 16,8 C16,3.584 12.416,0 8,0 Z M8,14.4 C4.472,14.4 1.6,11.528 1.6,8 C1.6,4.472 4.472,1.6 8,1.6 C11.528,1.6 14.4,4.472 14.4,8 C14.4,11.528 11.528,14.4 8,14.4 Z M8,3.2 C6.232,3.2 4.8,4.632 4.8,6.4 L6.4,6.4 C6.4,5.52 7.12,4.8 8,4.8 C8.88,4.8 9.6,5.52 9.6,6.4 C9.6,8 7.2,7.8 7.2,10.4 L8.8,10.4 C8.8,8.6 11.2,8.4 11.2,6.4 C11.2,4.632 9.768,3.2 8,3.2 Z" fill-rule="nonzero"></path>
                </g>
            </g>
        </g>
    </g>
</svg>