<svg width="20px" height="20px" viewBox="0 0 20 20" version="1.1" xmlns="http://www.w3.org/2000/svg" xmlns:xlink="http://www.w3.org/1999/xlink">
    <g id="Symbols" stroke="none" stroke-width="1" fill="none" fill-rule="evenodd">
        <g id="1440-/-left_menu" transform="translate(-30.000000, -372.000000)" fill="#505E77">
            <g id="left_menu">
                <g id="support-16" transform="translate(30.000000, 372.000000)">
                    <g id="Shape">
                        <path d="M19.1666667,7.5 L18.8216667,7.5 C17.9575,4.43333333 15.5675,2.0425 12.5,1.17833333 L12.5,0.833333333 C12.5,0.373333333 12.1275,0 11.6666667,0 L8.33333333,0 C7.8725,0 7.5,0.373333333 7.5,0.833333333 L7.5,1.17833333 C4.4325,2.0425 2.0425,4.43333333 1.17833333,7.5 L0.833333333,7.5 C0.3725,7.5 0,7.87333333 0,8.33333333 L0,11.6666667 C0,12.1266667 0.3725,12.5 0.833333333,12.5 L1.17833333,12.5 C2.0425,15.5666667 4.4325,17.9575 7.5,18.8216667 L7.5,19.1666667 C7.5,19.6266667 7.8725,20 8.33333333,20 L11.6666667,20 C12.1275,20 12.5,19.6266667 12.5,19.1666667 L12.5,18.8216667 C15.5675,17.9575 17.9575,15.5666667 18.8216667,12.5 L19.1666667,12.5 C19.6275,12.5 20,12.1266667 20,11.6666667 L20,8.33333333 C20,7.87333333 19.6275,7.5 19.1666667,7.5 Z M10,13.3333333 C8.16166667,13.3333333 6.66666667,11.8383333 6.66666667,10 C6.66666667,8.16166667 8.16166667,6.66666667 10,6.66666667 C11.8383333,6.66666667 13.3333333,8.16166667 13.3333333,10 C13.3333333,11.8383333 11.8383333,13.3333333 10,13.3333333 Z M17.0683333,7.5 L14.3233333,7.5 C13.885,6.74416667 13.2558333,6.115 12.5,5.67666667 L12.5,2.93166667 C14.6391667,3.68333333 16.3166667,5.36083333 17.0683333,7.5 Z M7.5,2.93166667 L7.5,5.67666667 C6.74416667,6.115 6.115,6.74416667 5.67666667,7.5 L2.93166667,7.5 C3.68333333,5.36083333 5.36083333,3.68333333 7.5,2.93166667 Z M2.93166667,12.5 L5.67666667,12.5 C6.115,13.2558333 6.74416667,13.885 7.5,14.3233333 L7.5,17.0683333 C5.36083333,16.3166667 3.68333333,14.6391667 2.93166667,12.5 Z M12.5,17.0683333 L12.5,14.3233333 C13.2558333,13.885 13.885,13.255 14.3233333,12.5 L17.0683333,12.5 C16.3166667,14.6391667 14.6391667,16.3166667 12.5,17.0683333 Z" fill-rule="nonzero"></path>
                    </g>
                </g>
            </g>
        </g>
    </g>
</svg>
