<?xml version="1.0" encoding="UTF-8"?>
<svg width="20px" height="22px" viewBox="0 0 20 22" version="1.1" xmlns="http://www.w3.org/2000/svg" xmlns:xlink="http://www.w3.org/1999/xlink">
    <!-- Generator: Sketch 48.2 (47327) - http://www.bohemiancoding.com/sketch -->
    <title>DOC Icon</title>
    <desc>Created with Sketch.</desc>
    <defs>
        <path d="M20.1622121,8 L15.9985738,8 C14.3425072,8 13,6.65142192 13,5.0035084 L13,0.83778792 L20.1622121,8 Z" id="path-1"></path>
    </defs>
    <g id="Symbols" stroke="none" stroke-width="1" fill="none" fill-rule="evenodd">
        <g id="DOC-Icon">
            <g id="PDF-Icon-Copy" transform="translate(0.000000, -1.000000)">
                <g id="Base">
                    <path d="M12.8973465,1.5 L2.99420208,1.5 C1.61869757,1.5 0.5,2.62066791 0.5,4.00138694 L0.5,19.9986131 C0.5,21.3807899 1.61670702,22.5 2.99420208,22.5 L17.0057979,22.5 C18.3813024,22.5 19.5,21.3793321 19.5,19.9986131 L19.5,8.10265351 L12.8973465,1.5 Z" stroke="#4A90E2"></path>
                    <g id="Part">
                        <use fill="#FFFAFA" fill-rule="evenodd" xlink:href="#path-1"></use>
                        <path stroke="#4A90E2" stroke-width="1" d="M18.9551053,7.5 L13.5,2.0448947 L13.5,5.0035084 C13.5,6.37780096 14.6211689,7.5 15.9985738,7.5 L18.9551053,7.5 Z"></path>
                    </g>
                </g>
                <text id="PDF" font-family="OpenSans-Bold, Open Sans" font-size="9" font-weight="bold" letter-spacing="-0.800000012" fill="#4A90E2">
                    <tspan x="2" y="16">PD</tspan>
                    <tspan x="12.7134765" y="16">F</tspan>
                </text>
            </g>
        </g>
    </g>
</svg>