<svg width="24px" height="15px" viewBox="0 0 24 15" version="1.1" xmlns="http://www.w3.org/2000/svg" xmlns:xlink="http://www.w3.org/1999/xlink">
    <g id="Page-1" stroke="none" stroke-width="1" fill="none" fill-rule="evenodd">
        <g id="Mobile" transform="translate(-276.000000, -34.000000)" fill="#505E77">
            <g id="left_menu" transform="translate(-14.000000, 0.000000)">
                <path d="M291.5,34 L312.5,34 C313.328427,34 314,34.6715729 314,35.5 C314,36.3284271 313.328427,37 312.5,37 L291.5,37 C290.671573,37 290,36.3284271 290,35.5 C290,34.6715729 290.671573,34 291.5,34 Z M291.5,40 L312.5,40 C313.328427,40 314,40.6715729 314,41.5 C314,42.3284271 313.328427,43 312.5,43 L291.5,43 C290.671573,43 290,42.3284271 290,41.5 C290,40.6715729 290.671573,40 291.5,40 Z M291.5,46 L312.5,46 C313.328427,46 314,46.6715729 314,47.5 C314,48.3284271 313.328427,49 312.5,49 L291.5,49 C290.671573,49 290,48.3284271 290,47.5 C290,46.6715729 290.671573,46 291.5,46 Z" id="Combined-Shape"></path>
            </g>
        </g>
    </g>
</svg>
