<?xml version="1.0" encoding="UTF-8"?>
<svg width="222px" height="112px" viewBox="0 0 222 112" version="1.1" xmlns="http://www.w3.org/2000/svg" xmlns:xlink="http://www.w3.org/1999/xlink">
    <!-- Generator: Sketch 48.2 (47327) - http://www.bohemiancoding.com/sketch -->
    <title>hands</title>
    <desc>Created with Sketch.</desc>
    <defs></defs>
    <g id="768_6" stroke="none" stroke-width="1" fill="none" fill-rule="evenodd" transform="translate(-273.000000, -579.000000)">
        <g id="hands" transform="translate(273.000000, 579.000000)" fill="#FFCC00">
            <g id="Page-1">
                <path d="M199.398738,79.9460469 C199.428619,81.269143 198.376712,82.3697863 197.054773,82.399668 L197.000546,83.2003874 L197.000546,82.4002213 C195.705721,82.4002213 194.629466,81.3477208 194.601246,80.0528464 C194.586859,79.4114962 194.82203,78.8044546 195.265259,78.3407346 C195.708487,77.877568 196.304992,77.6147195 197.002206,77.600332 C198.295924,77.600332 199.370518,78.6522792 199.398738,79.9460469 Z M196.910904,76.0011067 C195.842397,76.0243481 194.847484,76.4626133 194.10877,77.2356644 C193.370609,78.0070554 192.977735,79.0213737 193.000975,80.0893685 C193.049116,82.2452791 194.843057,84 197.000546,84 L197.090187,83.9988933 C199.295263,83.9490904 201.047704,82.1146849 200.999009,79.9111849 C200.951975,77.7547209 199.158587,76 197.002206,76 L196.910904,76.0011067 Z" id="Fill-1"></path>
                <path d="M47.8998533,54.2838497 C54.304638,37.708517 56.2859932,30.6446675 56.4987138,29.8639568 C56.6556215,29.5242421 57.2369174,28.1495582 57.2126967,26.4715577 L72.414846,30.4737551 C72.5301574,30.5913893 73.1304086,31.3615498 72.8029031,34.3277231 C72.3174369,38.7250235 63.4389857,63.8301483 58.7691373,71.9827728 L58.6322379,72.285562 C56.9594328,76.0108181 56.9594328,76.0108181 55.2966319,76.0482712 C53.3700365,76.1142096 44.5542431,74.651432 39.5405667,73.7720774 C42.2543336,67.9547275 45.2413727,61.1635992 47.8998533,54.2838497 Z M174.17268,65.3103337 C177.464583,71.3297188 179.991957,76.1289798 181.938034,79.964485 L160.32952,78.0712614 C160.434301,75.7307118 158.87944,69.9455398 156.367336,61.5328543 C152.939586,50.0389989 149.829338,44.9707093 147.972245,41.9428177 C147.708977,41.5139543 147.474142,41.1315115 147.271952,40.7833568 C147.057652,40.4130467 146.82545,40.0469566 146.576925,39.7293973 L155.458535,35.3015015 C155.600173,35.230288 155.698635,35.1152914 155.770771,34.9860521 C158.130706,37.7343649 163.21915,45.279301 174.17268,65.3103337 Z M179.136862,82.4121186 L178.950995,82.0840091 C180.019863,81.8434658 180.8381,81.676246 181.238267,81.6261328 C181.377273,81.608725 181.49469,81.5459517 181.597892,81.4657706 L182.744161,81.565997 C186.833766,89.7423593 187.974243,92.9939139 188.273316,94.2530737 C187.259207,93.3552564 184.80397,90.636484 179.136862,82.4121186 Z M99.2708182,101.119108 C100.669298,99.0634123 102.132015,97.9303267 103.388857,97.9303267 C103.907495,97.9303267 104.388222,98.1165368 104.857366,98.5000346 C107.387372,100.56839 107.683285,103.142098 105.816188,106.845199 C105.773539,106.930128 105.724044,107.005561 105.676656,107.083632 C105.653488,107.120558 105.627688,107.154846 105.611365,107.194936 C105.060609,108.023123 104.212886,108.444074 103.085045,108.444074 C101.959838,108.444074 100.886757,108.029453 100.257547,107.64068 C99.5472496,107.202849 98.705845,106.175265 98.4267808,104.86863 C98.1566678,103.601557 98.4404708,102.340815 99.2708182,101.119108 Z M91.0178918,93.9803525 C91.5728609,93.435965 92.0883397,92.9089853 92.5743325,92.4110184 C94.5804349,90.3579602 96.0299887,88.8751374 97.6217072,88.8751374 C98.3530658,88.8751374 99.158666,89.1821466 100.08379,89.8130452 C100.984167,90.4275912 101.581785,91.4688905 101.722897,92.671607 C101.878225,93.9898476 101.563883,96.1093717 99.1886785,98.7210601 C96.9714352,101.159199 95.1127628,102.782866 93.2482986,102.782866 C92.3942571,102.782866 91.5581178,102.435239 90.6914395,101.720466 C89.4525001,100.699212 88.7990688,99.5898645 88.7490479,98.421436 C88.6732267,96.6658919 89.9411256,95.0380045 91.0178918,93.9803525 Z M79.801094,87.2947256 C79.8274208,87.2715153 79.8542741,87.2488325 79.8800744,87.2256222 C79.8969236,87.210852 79.9137727,87.1960818 79.9306219,87.1807841 C82.019917,85.3302887 84.4393502,83.4766282 86.6792346,83.4766282 C87.8107607,83.4766282 88.88858,83.9292294 89.97693,84.8618622 C91.1579504,85.8741486 91.7824222,87.1528262 91.7829487,88.560743 C91.7840018,90.3996333 90.7393543,92.309737 88.8417183,93.9386794 C87.3379313,95.2300171 85.0743527,96.9459982 82.7902392,96.9459982 C81.6371253,96.9459982 80.6077472,96.5097497 79.6436597,95.6108774 C78.2930947,94.3511901 77.6159693,92.9812538 77.6322919,91.5390489 C77.6491411,90.0562261 78.4394717,88.5095748 79.801094,87.2947256 Z M71.5665964,80.2709667 C73.5374209,78.439989 75.3434396,77.5110488 76.9346316,77.5110488 C78.1493503,77.5110488 79.2513903,78.0601838 80.2117921,79.1415736 C80.7672877,79.7682523 81.4038698,80.7926713 81.2817134,82.1209346 C81.1621897,83.4280975 80.3255239,84.7927588 78.8517495,86.0999217 C78.8475372,86.1041418 78.8438514,86.1067793 78.8396391,86.1109994 C78.6306043,86.2966819 78.4089326,86.4802545 78.1746241,86.662772 C77.3505951,87.3042208 75.4808656,87.9672974 73.7780479,87.9672974 C72.9756069,87.9672974 71.8783058,87.8185403 71.2069723,87.1095706 C70.3018568,86.1532 69.8432439,85.0158943 69.881681,83.8205629 C69.9232774,82.5202576 70.5372184,81.2257548 71.5665964,80.2709667 Z M74.3166943,34.4959979 C74.3351231,34.3308881 74.3451273,34.1805486 74.3582907,34.0249339 C76.0110874,34.068717 84.8216154,34.320338 89.8484552,34.8045896 C93.903836,35.1944175 100.055883,35.5156694 104.161812,35.6596789 C101.89876,36.4556873 100.131178,36.9694794 99.7683947,37.0728708 C97.6717281,37.2569708 93.6242454,38.6675252 92.7996899,42.7762791 C91.9156358,47.1783271 90.0301102,53.4751811 89.8500348,54.0733743 C89.6552165,54.5159529 88.4257548,57.4868737 89.435651,59.689744 C89.9042681,60.712053 90.7556769,61.4051975 91.9656568,61.7501873 C96.035254,62.9138682 103.699513,61.3455892 107.195186,52.2998949 C108.537853,52.0266462 112.367876,51.1910747 114.175475,50.2078012 C115.309633,50.8170721 118.693154,52.6601824 120.260652,53.8048731 C121.312671,54.5729237 122.486846,55.9191222 123.846363,57.4789611 C124.515063,58.2459566 125.220095,59.0514602 125.964617,59.8564362 C126.004634,59.94453 126.062553,60.0273486 126.137321,60.0975071 C126.149958,60.1091122 126.31529,60.2641993 126.595934,60.5253154 C127.444184,61.4073075 128.347719,62.2734744 129.318125,63.0715929 C132.788525,66.3231476 138.110751,71.3265538 140.058935,73.2530103 C142.920132,76.0820316 150.388519,84.5242576 150.97666,85.1894442 C151.279945,85.6615632 153.746766,89.7196765 150.697069,92.3577402 C147.196131,95.3851043 143.874215,93.4185573 142.862739,92.3841156 L124.395013,75.1578389 C124.086463,74.870875 123.605736,74.8893377 123.3193,75.196347 C123.032338,75.5044112 123.049187,75.9870803 123.357211,76.2740443 L141.755434,93.4333275 C142.10558,93.9745499 144.533965,97.9989027 141.120431,100.54729 C138.815783,102.270129 134.735655,102.412028 130.818227,98.8460793 C130.781896,98.8123189 130.73872,98.7738108 130.699756,98.7384678 C130.699229,98.7374128 130.696597,98.7342478 130.696597,98.7342478 C130.692911,98.7295002 130.687119,98.7279177 130.683433,98.7236976 C127.200397,95.5644567 115.29647,85.3614116 115.17484,85.2580202 C114.856286,84.9847714 114.374505,85.0222244 114.102286,85.3413663 C113.828487,85.6615632 113.865871,86.1431773 114.185479,86.4169536 C114.306056,86.51929 126.009373,96.5503678 129.578761,99.7781846 C129.78411,100.059346 130.531791,101.181881 130.36172,102.462141 C130.236931,103.400577 129.636153,104.258831 128.576236,105.015277 C126.063079,106.804581 122.278865,106.100359 118.195051,103.080907 C117.5948,102.637274 116.901352,102.104492 116.15683,101.520014 C116.084168,101.432975 116.03362,101.376004 116.02151,101.364399 C115.936738,101.273668 115.831957,101.217224 115.722964,101.177134 C111.221607,97.6164599 105.127479,92.4126009 105.053764,92.3503551 C104.733103,92.0755238 104.252902,92.1150869 103.980683,92.4347562 C103.707938,92.7560082 103.745848,93.2370948 104.065456,93.5103435 C104.141277,93.5752269 110.517102,99.0196292 115.076378,102.607733 C115.43179,103.062445 116.255292,104.265689 116.149458,105.617162 C116.075743,106.564038 115.541309,107.437062 114.562479,108.210388 C112.700121,109.682661 108.995939,108.742115 107.274693,107.334198 C108.154535,105.571797 110.25594,100.944503 105.819347,97.3184183 C105.077984,96.7123125 104.259747,96.4053033 103.388857,96.4053033 C103.098735,96.4053033 102.807034,96.4517239 102.514807,96.5202999 C103.263015,94.89083 103.354105,93.508761 103.235108,92.4943646 C103.042396,90.851707 102.20573,89.4153048 100.940464,88.5528304 C99.7547048,87.7436343 98.6689874,87.3501139 97.6217072,87.3501139 C96.0052415,87.3501139 94.6546765,88.2806367 93.2051227,89.6384403 C93.2651478,89.2797354 93.3056911,88.9199755 93.3056911,88.5602155 C93.304638,86.6928399 92.495352,85.0132568 90.9662913,83.7034563 C89.5909791,82.5239501 88.1888135,81.9510772 86.6792346,81.9510772 C85.2854937,81.9510772 83.925451,82.4564292 82.6080578,83.2339749 C82.6970424,82.9116679 82.7681247,82.587251 82.7981373,82.2612515 C82.9339836,80.7789561 82.4327213,79.3494115 81.34911,78.1287597 C80.1059584,76.727173 78.5790038,75.9865528 76.9346316,75.9865528 C75.0749062,75.9865528 73.0677508,76.9313183 70.9652922,78.7723186 C68.4447641,76.1674878 62.9930096,71.448408 61.4571039,70.1270023 C66.340726,60.1476202 73.8649264,38.583124 74.3166943,34.4959979 Z M154.113762,34.2675873 C154.109023,33.887782 154.140615,33.6598989 154.171154,33.5354072 C154.315952,33.5950155 154.509717,33.7189797 154.76614,33.9421153 L154.113762,34.2675873 Z M158.800986,78.1846755 C157.093956,80.2846819 152.618399,82.5951636 151.293635,83.2492726 C149.143788,80.8259043 143.575142,74.5865486 141.127803,72.1668728 C139.939411,70.9910592 137.506288,68.6816325 135.001029,66.319455 C135.658673,66.535733 136.341063,66.7082279 137.051887,66.825862 C138.55778,67.0753729 139.920456,67.1729617 141.130962,67.1729617 C145.302707,67.1724342 147.655797,66.0156108 147.780586,65.95231 C148.154953,65.7634624 148.305016,65.3071686 148.117043,64.9315835 C147.929596,64.5559983 147.473616,64.4040762 147.097142,64.5892313 C147.061864,64.606639 143.474048,66.3416103 137.300412,65.3214113 C134.612972,64.8767227 132.30885,63.551097 130.289584,61.8941967 C129.16385,60.8407648 128.240833,59.9767079 127.699027,59.4708284 C126.73178,58.4669822 125.832983,57.4399256 124.993685,56.4756423 C123.57309,54.8466999 122.347314,53.4408931 121.157343,52.5715612 C119.738328,51.536592 117.039831,50.0295038 115.552366,49.2187251 C115.87408,48.9412563 116.200006,48.6184219 116.49276,48.2438917 C116.752869,47.9126172 116.69495,47.4336406 116.364285,47.173052 C116.03362,46.912991 115.554999,46.9699617 115.29647,47.3028188 C114.446114,48.3863187 113.189799,48.9955896 113.168211,49.0050847 C113.159787,49.0093047 113.154521,49.0177449 113.14557,49.0219649 C111.798691,49.6560286 109.269738,50.2900923 107.587455,50.6572374 C107.710665,49.7304072 107.798596,48.3958138 107.622733,46.8697354 C107.574818,46.4514221 107.197292,46.149688 106.779222,46.2003287 C106.361679,46.2488593 106.06208,46.627082 106.110522,47.0459228 C106.343777,49.0662755 106.055235,50.741111 105.926234,51.3472169 L105.916756,51.3725372 C102.848104,59.805268 95.9878658,61.3149938 92.3826733,60.2831896 C91.6102449,60.0626916 91.0989784,59.6612586 90.8204408,59.0562078 C90.1728015,57.6493459 90.9157438,55.4048026 91.2564127,54.6583798 L91.2927437,54.5623735 C91.3138051,54.4943251 93.3536058,47.7527825 94.2924196,43.0769583 C95.1069709,39.0193725 99.764709,38.6026418 99.9611069,38.5873441 L100.108011,38.5614962 C100.374438,38.4871177 106.688658,36.7146934 111.761307,34.1499531 C117.470011,31.2634335 123.040762,33.591323 123.106579,33.6187533 C123.220311,33.6667565 134.599282,38.3673736 145.712352,41.1505018 C145.787647,41.2686634 145.866627,41.3968477 145.956139,41.5503523 C146.163594,41.9080022 146.404747,42.3009951 146.67486,42.7419912 C148.493516,45.7060544 151.537421,50.66726 154.909358,61.9691028 C156.183049,66.2398014 159.141128,76.1484975 158.800986,78.1846755 Z M163.292865,84.447769 C163.172288,84.4920796 162.931135,84.5807009 162.763696,84.6155163 C162.762643,84.6044387 162.762643,84.5928335 162.762643,84.5807009 C162.741055,82.3783581 162.6705,80.659212 162.628903,79.8035952 L176.702686,81.0369072 C171.592127,82.2443713 164.074771,84.1998406 163.605101,84.3401576 C163.517696,84.3654779 163.410809,84.4050409 163.292865,84.447769 Z M221.870529,79.6659159 C221.543024,78.9532536 220.730579,78.9574736 219.929717,79.3298937 L217.1217,80.7873963 L189.772891,94.1602324 C189.227399,91.3781592 186.229829,84.1861254 175.507449,64.5776261 C162.99116,41.6875042 157.942732,34.7001432 155.611757,32.6919231 L208.025263,5.67933206 L211.045474,4.17013382 C211.739975,3.81301142 212.064848,3.1124818 211.762616,2.47736307 C211.256089,1.61910878 210.329385,1.96620855 210.000827,2.13553838 L152.925897,30.6536351 C151.442644,31.2818962 151.097237,32.8169423 151.068804,34.0797947 L144.345991,37.4352683 C144.241211,37.4706112 144.139589,37.5133393 144.040074,37.5613425 C133.980602,34.8125022 124.371319,30.8440652 124.271277,30.8023922 C124.028018,30.6968907 121.504857,29.6482063 117.953897,29.6482063 C115.27067,29.6482063 112.724868,30.2485095 110.386521,31.4311808 C109.569864,31.8426364 108.663169,32.2567296 107.629052,32.6903406 C104.963726,32.6887581 95.5750615,32.2904901 90.1375235,31.7672029 C85.8020256,31.3504722 78.939681,31.1062363 75.8052118,31.0107575 C75.3660807,28.4112018 73.9581232,27.7249149 73.2699406,27.5450349 L58.1467717,23.5623552 C57.4238377,21.8210538 55.8542336,19.9262478 52.5428483,18.7557092 C45.5709842,16.2927778 3.91408325,0.243897393 3.49759323,0.074567567 C3.22116179,-0.0383189836 2.39923899,-0.104784897 2.1117503,0.503430958 C1.82373507,1.11217432 1.82373507,1.75256812 2.63933944,2.19409168 C2.63933944,2.19409168 3.64923561,2.58391954 5.3804862,3.25016119 C14.7217626,7.03924574 45.5457105,19.5179571 51.5276868,21.6348437 C53.5085155,22.3348458 54.7985288,23.3946079 55.3613959,24.785117 C56.2301804,26.9299615 55.1118178,29.2346406 55.1012871,29.2557409 L55.0454742,29.4050255 C55.0280985,29.4714914 53.2152349,36.3037652 46.4797855,53.7326046 C39.8843947,70.8032666 31.2707912,87.3058033 29.9223323,89.5535117 C29.4710909,90.306792 29.0424905,90.5193774 28.8439864,90.4175685 L28.7644795,90.3621803 L3.09637274,80.8686324 L1.93641379,80.4028435 C0.810679673,79.9940254 0.254657585,80.3100022 0.0524677355,80.953561 C-0.149722114,81.5965924 0.236228823,82.2121933 1.14503008,82.548743 L27.465515,93.1331758 C27.8024981,93.2998681 28.3116585,93.4771106 28.9508733,93.4771106 C29.7606857,93.4771106 31.3029099,93.1716839 32.5328981,91.1239007 C33.2068643,90.0034754 36.1523071,84.4625392 39.7506545,76.9044154 C43.5269712,77.5590519 52.6944907,79.1004281 55.2134392,79.1004281 L55.3666612,79.0993731 C58.8186317,79.0149719 59.523137,77.7262717 61.2217423,73.9577599 C63.158342,75.6489482 65.9879468,78.1561901 67.8940074,80.007213 C65.9668854,83.2534926 66.8319841,86.9154479 68.9944677,89.2048294 C70.1202019,90.3911932 71.7745782,91.0173443 73.7838398,91.0173443 C74.0555324,91.0173443 74.3335435,91.0052116 74.6136607,90.9809463 C74.5994442,91.1560787 74.5910196,91.3301561 74.5889135,91.505816 C74.5715378,93.1126031 75.0743797,95.5169811 77.5706872,97.8417055 C79.1002745,99.2717777 80.8573253,99.9971001 82.7907658,99.9971001 C83.8454175,99.9971001 84.8563668,99.7781846 85.8041317,99.4273923 C86.048971,100.757766 86.7955991,102.456866 88.7590521,104.073676 C90.1691157,105.239467 91.6813273,105.832913 93.2498782,105.832913 C94.0133555,105.832913 94.7410284,105.694178 95.4365825,105.45047 C95.4407948,105.469988 95.4444806,105.488451 95.4486928,105.506913 C95.8651829,107.4608 97.0972773,109.27437 98.6637221,110.240763 C99.9400455,111.025167 101.591263,111.492538 103.082939,111.492538 C104.390855,111.492538 105.563451,111.152823 106.532277,110.509792 C108.130841,111.429237 110.144314,112 112.01773,112 C113.760564,112 115.290151,111.518913 116.444319,110.607908 C117.892293,109.4648 118.597325,108.225686 118.927989,107.174364 C121.169453,108.407676 123.364056,109.050179 125.378056,109.050179 C127.22883,109.050179 128.898476,108.52953 130.338552,107.502473 C132.0003,106.318747 132.783259,105.001561 133.14183,103.905401 C134.544522,104.476692 135.987231,104.775261 137.407826,104.775261 C139.467635,104.775261 141.380014,104.160187 142.939087,102.996506 C144.958353,101.487836 145.998261,99.3931043 145.954559,96.9881988 C146.211509,97.0129916 146.474777,97.0261793 146.74331,97.0261793 C148.847875,97.0261793 150.903471,96.2095981 152.688429,94.6650569 C156.044043,91.7632395 155.509082,87.7499644 154.36492,85.0955479 C155.927679,84.2467888 158.023292,82.9971241 159.652921,81.6176927 C159.679248,82.440604 159.702942,83.4581654 159.714526,84.6123513 C159.736641,86.6269015 161.202517,87.6792784 162.638907,87.6792784 C163.341306,87.6792784 163.941558,87.4571979 164.340145,87.3105509 C164.384901,87.2941981 164.425444,87.2783729 164.462302,87.2657127 C165.052022,87.1053505 171.72534,85.3709067 176.663196,84.1850704 C186.00026,97.729874 187.500887,97.729874 188.825652,97.729874 C189.113667,97.729874 189.395891,97.6829258 189.664424,97.5911396 C189.764466,97.5563241 189.862402,97.514651 189.955599,97.4671754 L190.000881,97.4439651 L220.931189,81.386117 C221.804712,80.9583086 222.233839,80.4561217 221.870529,79.6659159 Z" id="Fill-3"></path>
            </g>
        </g>
    </g>
</svg>