<?xml version="1.0" encoding="UTF-8"?>
<svg width="14px" height="16px" viewBox="0 0 14 16" version="1.1" xmlns="http://www.w3.org/2000/svg" xmlns:xlink="http://www.w3.org/1999/xlink">
    <!-- Generator: Sketch 51.3 (57544) - http://www.bohemiancoding.com/sketch -->
    <title>single-paragraph</title>
    <desc>Created with Sketch.</desc>
    <defs></defs>
    <g id="Symbols" stroke="none" stroke-width="1" fill="none" fill-rule="evenodd">
        <g id="1440-/-left_menu" transform="translate(-32.000000, -474.000000)" fill="#505E77" fill-rule="nonzero">
            <g id="single-paragraph" transform="translate(32.000000, 474.000000)">
                <path d="M13,0 L1,0 C0.4,0 0,0.4 0,1 L0,15 C0,15.6 0.4,16 1,16 L13,16 C13.6,16 14,15.6 14,15 L14,1 C14,0.4 13.6,0 13,0 Z M12,14 L2,14 L2,2 L12,2 L12,14 Z" id="Shape"></path>
                <rect id="Rectangle-path" x="3" y="3" width="4" height="4"></rect>
                <rect id="Rectangle-path" x="8" y="4" width="3" height="1"></rect>
                <rect id="Rectangle-path" x="8" y="6" width="3" height="1"></rect>
                <rect id="Rectangle-path" x="3" y="8" width="8" height="1"></rect>
                <rect id="Rectangle-path" x="3" y="10" width="8" height="1"></rect>
                <rect id="Rectangle-path" x="3" y="12" width="5" height="1"></rect>
            </g>
        </g>
    </g>
</svg>