<?xml version="1.0" encoding="UTF-8"?>
<svg width="247px" height="222px" viewBox="0 0 247 222" version="1.1" xmlns="http://www.w3.org/2000/svg" xmlns:xlink="http://www.w3.org/1999/xlink">
    <!-- Generator: Sketch 48.2 (47327) - http://www.bohemiancoding.com/sketch -->
    <title>Page 1</title>
    <desc>Created with Sketch.</desc>
    <defs>
        <polygon id="path-1" points="0.340707692 0.39576 5.97876923 0.39576 5.97876923 1.66616 0.340707692 1.66616"></polygon>
    </defs>
    <g id="Page-1" stroke="none" stroke-width="1" fill="none" fill-rule="evenodd">
        <g>
            <path d="M158.859302,107.110044 L137.09042,114.831248 C135.112794,115.532922 132.938389,114.506287 132.233265,112.538338 C131.942314,111.726169 129.996547,97.7910759 128.654703,88.0203327 C127.793093,81.7467668 125.772363,75.6909295 122.692307,70.1507405 C119.894301,64.593301 113.742154,61.7749519 107.358559,63.5083881 L102.972735,65.7159784 L107.28828,77.2630508 C109.320255,82.7183863 109.42333,88.6996271 107.580637,94.2207008 L96.456548,127.554614 L85.961682,137.678758 L68,144.049766 L88.3993957,201 L113.565522,192.073596 C118.561828,197.49816 126.541674,199.752373 133.914786,197.1373 L184.659337,179.138096 C188.826361,177.660153 191.020444,173.058481 189.535233,168.911848 L169.135837,111.961614 C167.650627,107.815447 163.026326,105.632101 158.859302,107.110044" id="Fill-11" fill="#FFFFFF"></path>
            <path d="M98.0660562,63.7539198 L99.4314213,67.4164656 L103.742361,78.9832355 C105.418526,83.4943972 105.504183,88.4978214 103.983418,93.0682975 L93.2074724,125.444138 L84.1764979,134.180164 L67.1279239,140.243307 L63,141.711688 L64.4716173,145.830534 L84.8514572,202.880687 L86.3226064,207 L90.4509985,205.531152 L113.047626,197.494755 C119.349743,202.817169 128.029663,204.469098 135.922288,201.661706 L200.758169,178.602426 C204.120328,177.406798 206.806123,174.812378 208.127489,171.484234 C209.446047,168.164498 209.263031,164.435165 207.626653,161.252272 C206.466771,158.996457 204.660015,157.239444 202.518119,156.100795 C206.682552,153.275656 208.899808,148.220857 207.83354,143.252461 C207.08369,139.754781 204.860817,136.751232 201.735503,135.011499 C201.449043,134.852238 201.157902,134.704652 200.862081,134.56921 C204.00331,131.641322 205.546074,127.270273 204.622569,122.962275 C203.872718,119.464595 201.649846,116.461046 198.524999,114.721313 C197.870167,114.35702 197.189591,114.054844 196.492164,113.816185 C198.794609,110.976101 199.824834,107.223883 199.030517,103.519303 C198.280666,100.021156 196.057794,97.0171402 192.932479,95.2774076 C189.799208,93.5334716 186.074293,93.2191522 182.712135,94.4152475 L136.833155,110.731838 C136.518143,108.830508 135.69106,103.359108 133.538867,87.643134 C132.601319,80.7981619 130.42619,74.2623718 127.073861,68.2174432 C124.696993,63.9299947 120.753958,60.9157037 116.264214,59.616859 C112.149864,58.4263681 107.72097,59.0148415 103.877634,60.9016924 L98.0660562,63.7539198 Z M106.203014,64.5651723 C108.181553,63.579713 110.389915,63.0589608 112.591724,63.2616572 C116.991129,63.6665829 120.98144,66.26147 123.239418,70.3340789 C126.316521,75.8844097 128.335314,81.9508223 129.196098,88.2353437 C130.537123,98.0231494 132.480557,111.982577 132.771229,112.795698 C133.475677,114.76755 135.648466,115.795977 137.623728,115.093079 L184.183752,98.5340937 C188.680984,96.9344737 193.711819,99.6166977 194.744853,104.433772 C195.598147,108.413907 193.137027,112.372557 189.294626,113.738656 L175.434088,118.668755 C174.457223,119.016234 173.789753,120.004029 173.976045,121.021714 C174.214762,122.31869 175.53566,123.042606 176.726434,122.618999 L189.775336,117.977999 C194.273036,116.378379 199.304339,119.060136 200.336905,123.877211 C201.190199,127.857345 198.729079,131.815529 194.886678,133.182095 L179.025602,138.823499 C177.942953,139.208809 177.37799,140.396964 177.764149,141.477233 L177.764149,141.4777 C178.14984,142.558436 179.341083,143.121689 180.4242,142.736846 L192.987244,138.268652 C197.484476,136.669499 202.514842,139.350322 203.547876,144.167864 C204.401639,148.147531 201.940518,152.106649 198.098118,153.473215 L182.723368,158.941813 C181.639782,159.326656 181.075288,160.514812 181.460979,161.595081 L181.460979,161.595548 C181.847606,162.676284 183.038381,163.240004 184.12103,162.854694 L193.607439,159.48078 C197.449839,158.114214 201.865159,159.626964 203.727148,163.24841 C205.980913,167.631602 203.784253,172.883493 199.286552,174.48358 L134.451138,197.54286 C127.085563,200.162034 119.112898,197.903884 114.121382,192.470314 L88.9793812,201.412306 L68.5995412,144.36262 L86.5440043,137.980487 L97.0288094,127.838663 L108.142235,94.4465393 C109.983161,88.9158243 109.880185,82.9236714 107.850158,77.4592764 L103.53875,65.8920395 L106.203014,64.5651723 Z" id="Fill-17" fill="#FFCC00"></path>
            <path d="M44.2736229,146.890644 L68.7103292,214.906141 C69.580433,217.327938 72.2654857,218.591768 74.7065709,217.728539 L104.881449,207.057805 C107.323005,206.19411 108.59643,203.53074 107.726327,201.108944 L83.2896203,133.093447 C82.4195166,130.67165 79.7349339,129.408287 77.2933786,130.271515 L47.1185002,140.941783 C44.677415,141.805478 43.4035191,144.468848 44.2736229,146.890644" id="Fill-19" fill="#FFCC00"></path>
            <path d="M91.3532556,204.504453 C86.9325613,206.080028 82.0716144,203.773967 80.4955569,199.352854 C78.9199654,194.932206 81.22605,190.071311 85.6467444,188.495736 C90.0679046,186.919695 94.9288515,189.226222 96.5044431,193.646869 C98.0800346,198.067517 95.77395,202.928412 91.3532556,204.504453" id="Fill-21" fill="#FFFFFF"></path>
            <polygon id="Fill-23" fill="#E1ECF8" points="139.005 114 139.005 114 139 114.002"></polygon>
            <path d="M43.4997619,61.4967459 C41.8434838,61.4967459 40.4962696,62.84396 40.4962696,64.4997619 C40.4962696,66.15604 41.8434838,67.5037304 43.4997619,67.5037304 C45.15604,67.5037304 46.5032541,66.15604 46.5032541,64.4997619 C46.5032541,62.84396 45.15604,61.4967459 43.4997619,61.4967459 M43.4997619,69 C41.0186782,69 39,66.9813218 39,64.4997619 C39,62.0186782 41.0186782,60 43.4997619,60 C45.9808455,60 48,62.0186782 48,64.4997619 C48,66.9813218 45.9808455,69 43.4997619,69" id="Fill-33" fill="#FFCC00"></path>
            <path d="M221.5,133.400178 C220.34165,133.400178 219.399822,134.341946 219.399822,135.500223 C219.399822,136.658054 220.34165,137.600267 221.5,137.600267 C222.657905,137.600267 223.600178,136.658054 223.600178,135.500223 C223.600178,134.341946 222.657905,133.400178 221.5,133.400178 M221.5,139 C219.57001,139 218,137.43009 218,135.500223 C218,133.570356 219.57001,132 221.5,132 C223.429544,132 225,133.570356 225,135.500223 C225,137.43009 223.429544,139 221.5,139" id="Fill-35" fill="#FFCC00"></path>
            <path d="M151.5,31.4001782 C150.34165,31.4001782 149.399822,32.3419462 149.399822,33.4997773 C149.399822,34.6580538 150.34165,35.5998218 151.5,35.5998218 C152.65835,35.5998218 153.600178,34.6580538 153.600178,33.4997773 C153.600178,32.3419462 152.65835,31.4001782 151.5,31.4001782 M151.5,37 C149.57001,37 148,35.4296442 148,33.4997773 C148,31.5703558 149.57001,30 151.5,30 C153.42999,30 155,31.5703558 155,33.4997773 C155,35.4296442 153.42999,37 151.5,37" id="Fill-37" fill="#FFCC00"></path>
            <g id="Group" transform="translate(79.000000, 0.000000)" fill="#FFCC00">
                <polygon id="Fill-42" points="13.0192255 8 12 6.97185048 15.9807745 3 17 4.02814952"></polygon>
                <polygon id="Fill-44" points="19.9955792 11 14 10.9892947 14.0044208 10 20 10.0103904"></polygon>
                <polygon id="Fill-46" points="15.9718505 18 12 14.0192255 13.0281495 13 17 16.9807745"></polygon>
                <polygon id="Fill-48" points="9.98929808 21 9 20.9955796 9.01101668 15 10 15.0044204"></polygon>
                <polygon id="Fill-50" points="3.01922546 18 2 16.9718505 5.98077454 13 7 14.0281495"></polygon>
                <polygon id="Fill-52" points="5.99557921 11 0 10.9892947 0.00442079411 10 6 10.0103904"></polygon>
                <polygon id="Fill-54" points="5.97185048 8 2 4.01922546 3.02814952 3 7 6.98077454"></polygon>
                <polygon id="Fill-39" points="10.89495 5.81718462 9.32345 5.81303077 9.34095 0.179030769 10.91195 0.183184615"></polygon>
            </g>
            <g id="Group-Copy" transform="translate(227.000000, 201.000000)" fill="#FFCC00">
                <polygon id="Fill-42" points="13.0192255 8 12 6.97185048 15.9807745 3 17 4.02814952"></polygon>
                <polygon id="Fill-44" points="19.9955792 11 14 10.9892947 14.0044208 10 20 10.0103904"></polygon>
                <polygon id="Fill-46" points="15.9718505 18 12 14.0192255 13.0281495 13 17 16.9807745"></polygon>
                <polygon id="Fill-48" points="9.98929808 21 9 20.9955796 9.01101668 15 10 15.0044204"></polygon>
                <polygon id="Fill-50" points="3.01922546 18 2 16.9718505 5.98077454 13 7 14.0281495"></polygon>
                <polygon id="Fill-52" points="5.99557921 11 0 10.9892947 0.00442079411 10 6 10.0103904"></polygon>
                <polygon id="Fill-54" points="5.97185048 8 2 4.01922546 3.02814952 3 7 6.98077454"></polygon>
                <polygon id="Fill-39" points="10.89495 5.81718462 9.32345 5.81303077 9.34095 0.179030769 10.91195 0.183184615"></polygon>
            </g>
            <polygon id="Fill-56" fill="#FFCC00" points="224.989298 45 224 44.9955796 224.011017 39 225 39.0044204"></polygon>
            <polygon id="Fill-58" fill="#FFCC00" points="228.019319 46 227 44.9718505 230.980681 41 232 42.0281495"></polygon>
            <g id="Group-62" transform="translate(229.000000, 48.000000)">
                <mask id="mask-2" fill="white">
                    <use xlink:href="#path-1"></use>
                </mask>
                <g id="Clip-61"></g>
                <polygon id="Fill-60" fill="#FFCC00" mask="url(#mask-2)" points="5.97470769 1.66616 0.340707692 1.65256 0.345323077 0.39576 5.97886154 0.40896"></polygon>
            </g>
            <polygon id="Fill-63" fill="#FFCC00" points="230.97185 57 227 53.0192255 228.027688 52 232 55.9807745"></polygon>
            <polygon id="Fill-65" fill="#FFCC00" points="224.989298 59 224 58.9955796 224.011017 53 225 53.0044204"></polygon>
            <polygon id="Fill-67" fill="#FFCC00" points="218.019319 57 217 55.9718505 220.981141 52 222 53.0281495"></polygon>
            <polygon id="Fill-69" fill="#FFCC00" points="220.995088 49 215 48.9892947 215.00442 48 221 48.0103904"></polygon>
            <polygon id="Fill-71" fill="#FFCC00" points="220.97185 46 217 42.0192255 218.02815 41 222 44.9807745"></polygon>
            <polygon id="Fill-73" fill="#FFCC00" points="9 102 10 102 10 98 9 98"></polygon>
            <polygon id="Fill-75" fill="#FFCC00" points="14.1562378 104 13 102.843612 15.8437622 100 17 101.156388"></polygon>
            <polygon id="Fill-76" fill="#FFCC00" points="15 108 19 108 19 107 15 107"></polygon>
            <polygon id="Fill-77" fill="#FFCC00" points="15.8437622 115 13 112.156388 14.1562378 111 17 113.843091"></polygon>
            <polygon id="Fill-78" fill="#FFCC00" points="9 117 10 117 10 113 9 113"></polygon>
            <polygon id="Fill-79" fill="#FFCC00" points="3.15638824 115 2 113.843091 4.84361176 111 6 112.156388"></polygon>
            <polygon id="Fill-80" fill="#FFCC00" points="0 108 4 108 4 107 0 107"></polygon>
            <polygon id="Fill-81" fill="#FFCC00" points="4.84361176 104 2 101.156388 3.15638824 100 6 102.843612"></polygon>
        </g>
    </g>
</svg>