<?xml version="1.0" encoding="UTF-8"?>
<svg width="123px" height="123px" viewBox="0 0 123 123" version="1.1" xmlns="http://www.w3.org/2000/svg" xmlns:xlink="http://www.w3.org/1999/xlink">
    <!-- Generator: Sketch 50.2 (55047) - http://www.bohemiancoding.com/sketch -->
    <title>Group</title>
    <desc>Created with Sketch.</desc>
    <defs></defs>
    <g id="Page-1" stroke="none" stroke-width="1" fill="none" fill-rule="evenodd">
        <g id="1440_otkaz" transform="translate(-571.000000, -157.000000)">
            <g id="Group" transform="translate(573.000000, 159.000000)">
                <g id="Page-1">
                    <path d="M119,59.4996207 C119,92.3603264 92.3610851,119 59.4996207,119 C26.6389149,119 0,92.3603264 0,59.4996207 C0,26.6389149 26.6389149,0 59.4996207,0 C92.3610851,0 119,26.6389149 119,59.4996207 Z" id="Stroke-1" stroke="#E55567" stroke-width="4"></path>
                    <path d="M49,45.5 C49,48.5378397 46.5380113,51 43.5003832,51 C40.4627552,51 38,48.5378397 38,45.5 C38,42.4621603 40.4627552,40 43.5003832,40 C46.5380113,40 49,42.4621603 49,45.5" id="Fill-3" fill="#E55567"></path>
                    <path d="M82,45.5 C82,48.5378397 79.5380113,51 76.5003832,51 C73.4627552,51 71,48.5378397 71,45.5 C71,42.4621603 73.4627552,40 76.5003832,40 C79.5380113,40 82,42.4621603 82,45.5" id="Fill-5" fill="#E55567"></path>
                    <path d="M84.2613636,89 L36.7386364,89 C35.7783295,89 35,88.3285 35,87.5 C35,86.6715 35.7783295,86 36.7386364,86 L84.2613636,86 C85.2216705,86 86,86.6715 86,87.5 C86,88.3285 85.2216705,89 84.2613636,89" id="Fill-7" fill="#E55567"></path>
                </g>
            </g>
        </g>
    </g>
</svg>