<?xml version="1.0" encoding="UTF-8"?>
<svg width="14px" height="11px" viewBox="0 0 14 11" version="1.1" xmlns="http://www.w3.org/2000/svg" xmlns:xlink="http://www.w3.org/1999/xlink">
    <!-- Generator: Sketch 48.2 (47327) - http://www.bohemiancoding.com/sketch -->
    <title>Path</title>
    <desc>Created with Sketch.</desc>
    <defs></defs>
    <g id="checked-/-1" stroke="none" stroke-width="1" fill="none" fill-rule="evenodd" transform="translate(-18.000000, -20.000000)">
        <path d="M29.7465234,20.386084 L22.6663367,27.4662707 L20.2534766,25.0534106 C19.737378,24.537312 18.9018526,24.537312 18.387074,25.0534106 C17.8709753,25.5681893 17.8709753,26.4037147 18.387074,26.9198133 L21.7331353,30.2658747 C22.249234,30.7819733 23.0847593,30.7819733 23.599538,30.2658747 L31.612926,22.2524867 C32.1290247,21.737708 32.1290247,20.9021826 31.612926,20.386084 C31.0981474,19.8713053 30.262622,19.8713053 29.7465234,20.386084 Z" id="Path" fill="#38BA24"></path>
    </g>
</svg>