<svg width="22px" height="24px" viewBox="0 0 22 24" version="1.1" xmlns="http://www.w3.org/2000/svg" xmlns:xlink="http://www.w3.org/1999/xlink">
    <g id="Page-1" stroke="none" stroke-width="1" fill="none" fill-rule="evenodd" stroke-linecap="square">
        <g id="Tablet" transform="translate(-715.000000, -110.000000)" stroke="#FFFFFF">
            <g id="Notifications" transform="translate(425.000000, 80.000000)">
                <g id="bell-53-copy" transform="translate(292.000000, 31.000000)">
                    <g id="bell-53">
                        <path d="M12,19 C12,20.7 10.7,22 9,22 C7.3,22 6,20.7 6,19" id="Shape" stroke-width="2"></path>
                        <path d="M16,12 C16,9.5 16,7 16,7 C16,3.1 12.9,0 9,0 C5.1,0 2,3.1 2,7 C2,7 2,9.5 2,12 C2,16 0,19 0,19 L18,19 C18,19 16,16 16,12 Z" id="Shape" stroke-width="2"></path>
                    </g>
                </g>
            </g>
        </g>
    </g>
</svg>
