<?xml version="1.0" encoding="UTF-8"?>
<svg width="13px" height="8px" viewBox="0 0 13 8" version="1.1" xmlns="http://www.w3.org/2000/svg" xmlns:xlink="http://www.w3.org/1999/xlink">
    <!-- Generator: Sketch 48.2 (47327) - http://www.bohemiancoding.com/sketch -->
    <title>Arrow</title>
    <desc>Created with Sketch.</desc>
    <defs></defs>
    <g id="1440_4" stroke="none" stroke-width="1" fill="none" fill-rule="evenodd" transform="translate(-1052.000000, -122.000000)">
        <g id="Steps" transform="translate(166.000000, 80.000000)" fill="#7383A1">
            <g id="1">
                <g id="Event">
                    <g id="Base">
                        <path d="M889.815549,46.359677 L896.810191,46.359677 C897.085721,46.359677 897.309081,46.5929758 897.309081,46.8595685 L897.309081,47.7624074 C897.309081,48.0384899 897.079707,48.2622989 896.810191,48.2622989 L888.528773,48.2622989 C888.475448,48.2622989 888.424077,48.2535604 888.375901,48.2375331 C888.117057,48.2181941 887.912927,47.9974115 887.912927,47.7400178 L887.912927,39.4585995 C887.912927,39.1830701 888.146226,38.9597095 888.412819,38.9597095 L889.315658,38.9597095 C889.59174,38.9597095 889.815549,39.1890842 889.815549,39.4585995 L889.815549,46.359677 Z" id="Arrow" transform="translate(892.611004, 43.611004) rotate(-45.000000) translate(-892.611004, -43.611004) "></path>
                    </g>
                </g>
            </g>
        </g>
    </g>
</svg>