<svg width="14px" height="16px" viewBox="0 0 14 16" version="1.1" xmlns="http://www.w3.org/2000/svg" xmlns:xlink="http://www.w3.org/1999/xlink">
    <g id="Symbols" stroke="none" stroke-width="1" fill="none" fill-rule="evenodd">
        <g id="1440-/-left_menu" transform="translate(-32.000000, -273.000000)" fill="#505E77">
            <g id="left_menu">
                <g id="single-folded-content" transform="translate(32.000000, 273.000000)">
                    <g id="Shape">
                        <path d="M14,15 L14,5 L9,0 L1,0 C0.4,0 0,0.4 0,1 L0,15 C0,15.6 0.4,16 1,16 L13,16 C13.6,16 14,15.6 14,15 Z M2,2 L8,2 L8,6 L12,6 L12,14 L2,14 L2,2 Z" fill-rule="nonzero"></path>
                    </g>
                </g>
            </g>
        </g>
    </g>
</svg>
