<?xml version="1.0" encoding="iso-8859-1"?>
<!-- Generator: Adobe Illustrator 19.0.0, SVG Export Plug-In . SVG Version: 6.00 Build 0)  -->
<svg xmlns="http://www.w3.org/2000/svg" xmlns:xlink="http://www.w3.org/1999/xlink" version="1.1" id="Layer_1" x="0px" y="0px" viewBox="0 0 512 512" style="enable-background:new 0 0 512 512;" xml:space="preserve" width="22px" height="22px">
<g>
	<g>
		<polygon points="433.959,121.468 433.959,464.377 171.29,464.377 171.29,512 481.582,512 481.582,121.468   " fill="#515e77"/>
	</g>
</g>
<g>
	<g>
		<polygon points="231.944,0 231.906,0 231.906,93.559 325.503,93.559   " fill="#515e77"/>
	</g>
</g>
<g>
	<g>
		<polygon points="355.92,60.734 355.92,386.337 100.853,386.337 100.853,433.96 403.542,433.96 403.542,60.734   " fill="#515e77"/>
	</g>
</g>
<g>
	<g>
		<polygon points="201.489,123.976 201.489,0 30.418,0 30.418,355.919 325.503,355.919 325.503,123.976   " fill="#515e77"/>
	</g>
</g>
<g>
</g>
<g>
</g>
<g>
</g>
<g>
</g>
<g>
</g>
<g>
</g>
<g>
</g>
<g>
</g>
<g>
</g>
<g>
</g>
<g>
</g>
<g>
</g>
<g>
</g>
<g>
</g>
<g>
</g>
</svg>
