<?xml version="1.0" encoding="UTF-8"?>
<svg width="16px" height="16px" viewBox="0 0 16 16" version="1.1" xmlns="http://www.w3.org/2000/svg" xmlns:xlink="http://www.w3.org/1999/xlink">
    <!-- Generator: Sketch 48.2 (47327) - http://www.bohemiancoding.com/sketch -->
    <title>Shape</title>
    <desc>Created with Sketch.</desc>
    <defs></defs>
    <g id="edit_link-/-normal" stroke="none" stroke-width="1" fill="none" fill-rule="evenodd" transform="translate(0.000000, -2.000000)">
        <path d="M11.7,2.3 C11.3,1.9 10.7,1.9 10.3,2.3 L0.3,12.3 C0.1,12.5 0,12.7 0,13 L0,17 C0,17.6 0.4,18 1,18 L5,18 C5.3,18 5.5,17.9 5.7,17.7 L15.7,7.7 C16.1,7.3 16.1,6.7 15.7,6.3 L11.7,2.3 Z M4.6,16 L2,16 L2,13.4 L8,7.4 L10.6,10 L4.6,16 Z M12,8.6 L9.4,6 L11,4.4 L13.6,7 L12,8.6 Z" id="Shape" fill="#7F8FA4" fill-rule="nonzero"></path>
    </g>
</svg>