<svg width="17px" height="15px" viewBox="0 0 17 15" version="1.1" xmlns="http://www.w3.org/2000/svg" xmlns:xlink="http://www.w3.org/1999/xlink">
    <g id="Symbols" stroke="none" stroke-width="1" fill="none" fill-rule="evenodd">
        <g id="Notifications" transform="translate(-33.000000, -138.000000)" fill="#FFCC00" fill-rule="nonzero">
            <g id="Updates">
                <g transform="translate(18.000000, 11.000000)">
                    <g id="First-Update" transform="translate(0.000000, 27.000000)">
                        <g id="ic_warning_18px" transform="translate(15.000000, 100.000000)">
                            <path d="M0,15 L17,15 L8.5,0 L0,15 Z M9.5,13 L7.5,13 L7.5,11 L9.5,11 L9.5,13 Z M9.5,10 L7.5,10 L7.5,6 L9.5,6 L9.5,10 Z" id="Shape"></path>
                        </g>
                    </g>
                </g>
            </g>
        </g>
    </g>
</svg>
