<svg width="16px" height="16px" viewBox="0 0 16 16" version="1.1" xmlns="http://www.w3.org/2000/svg" xmlns:xlink="http://www.w3.org/1999/xlink">
    <g id="Symbols" stroke="none" stroke-width="1" fill="none" fill-rule="evenodd">
        <g id="1440-/-left_menu" transform="translate(-31.000000, -322.000000)" fill="#505E77">
            <g id="left_menu">
                <g id="briefcase-24" transform="translate(31.000000, 322.000000)">
                    <g id="Shape">
                        <path d="M16,10 L16,5 C16,4.4 15.6,4 15,4 L12,4 L12,1 C12,0.4 11.6,0 11,0 L5,0 C4.4,0 4,0.4 4,1 L4,4 L1,4 C0.4,4 0,4.4 0,5 L0,10 C0,10.6 0.4,11 1,11 L15,11 C15.6,11 16,10.6 16,10 Z M6,2 L10,2 L10,4 L6,4 L6,2 Z" fill-rule="nonzero"></path>
                        <path d="M0,13 L0,15 C0,15.6 0.457142857,16 1.14285714,16 L14.8571429,16 C15.5428571,16 16,15.6 16,15 L16,13 L0,13 Z" fill-rule="nonzero"></path>
                    </g>
                </g>
            </g>
        </g>
    </g>
</svg>
