<svg xmlns="http://www.w3.org/2000/svg" xmlns:xlink="http://www.w3.org/1999/xlink" width="154" height="144" viewBox="0 0 154 144">
    <defs>
        <path id="a" d="M0 0h154v144H0z"/>
    </defs>
    <g fill="none" fill-rule="evenodd">
        <mask id="b" fill="#fff">
            <use xlink:href="#a"/>
        </mask>
        <path fill="#FC0" d="M92.23 71.365v6.284a.89.89 0 0 1-1.783 0v-6.284a.89.89 0 0 1 1.784 0zm0 12.567v6.284a.89.89 0 0 1-1.783 0v-6.284a.89.89 0 0 1 1.784 0zm0 37.7v6.283a.89.89 0 0 1-1.783 0v-6.283a.89.89 0 0 1 1.784 0zm0-12.567v6.284a.89.89 0 0 1-1.783 0v-6.284a.89.89 0 0 1 1.784 0zm0-12.567v6.284a.89.89 0 0 1-1.783 0v-6.284a.89.89 0 0 1 1.784 0zm0-37.7v6.284a.89.89 0 0 1-1.783 0V58.8a.89.89 0 0 1 1.784 0zm0-12.566v6.283a.89.89 0 0 1-.891.89.89.89 0 0 1-.892-.89v-6.283a.89.89 0 0 1 .892-.89.89.89 0 0 1 .892.89zm0-12.567v6.284a.89.89 0 0 1-1.783 0v-6.284a.89.89 0 0 1 1.784 0zm-28.594 37.7v6.284a.89.89 0 0 1-1.783 0v-6.284a.89.89 0 0 1 1.783 0zm0 50.267v6.283a.89.89 0 0 1-1.783 0v-6.283a.89.89 0 0 1 1.783 0zm0-25.134v6.284a.89.89 0 0 1-1.783 0v-6.284a.89.89 0 0 1 1.783 0zm0-37.7v6.284a.89.89 0 0 1-1.783 0V58.8a.89.89 0 0 1 1.783 0zm0 50.267v6.284a.89.89 0 0 1-1.783 0v-6.284a.89.89 0 0 1 1.783 0zm0-25.133v6.284a.89.89 0 0 1-1.783 0v-6.284a.89.89 0 0 1 1.783 0zm0-37.7v6.283a.89.89 0 0 1-.891.89.89.89 0 0 1-.892-.89v-6.283a.89.89 0 0 1 .892-.89.89.89 0 0 1 .891.89zm0-12.567v6.284a.89.89 0 0 1-1.783 0v-6.284a.89.89 0 0 1 1.783 0zm88.58 103.197H92.231v-2.664a.89.89 0 0 0-1.784 0v2.664h-26.81v-2.664a.89.89 0 0 0-1.784 0v2.664H1.783V24.719h60.07v2.663a.89.89 0 0 0 1.783 0v-2.663h26.81v2.663a.89.89 0 0 0 1.785 0v-2.663h59.985v112.143zm-8.746 2.522a2.839 2.839 0 1 1-5.678 0v-.742h5.678v.742zm-127.255 0a2.84 2.84 0 0 1-5.678 0v-.742h5.678v.742zm1.3-117.184c.396-.4.925-.62 1.488-.62h16.5c.898 0 1.662.564 1.97 1.359h-20.44c.106-.272.266-.524.481-.739zm32.967-2.662c0-.102.077-.178.178-.178h1.425v.122a1.954 1.954 0 0 0-1.418 1.871v1.586h-.185v-3.401zm8.697 2.273a.887.887 0 0 0 .698-.341v1.469H52.45v-1.303a.886.886 0 0 0 .526.175h6.202zM53.87 9.952c0-4.506 3.674-8.172 8.19-8.172h29.897c4.513 0 8.185 3.666 8.185 8.172v10.079h-4.418v-6.976c0-3.63-2.96-6.583-6.597-6.583H64.884c-3.637 0-6.596 2.953-6.596 6.583v6.976h-4.419V9.952zm38.38 9.586c0-.099.08-.178.178-.178h1.512v.097a1.958 1.958 0 0 0-1.5 1.896v1.586h-.19v-3.401zm-28.613 3.4v-3.4c0-1.08-.88-1.958-1.963-1.958h-1.602v-4.525c0-2.648 2.16-4.803 4.813-4.803h24.242c2.654 0 4.813 2.155 4.813 4.803v4.525h-1.512a1.962 1.962 0 0 0-1.962 1.958v3.4h-26.83zm-3.565-3.505v-.073h1.602c.099 0 .18.08.18.178v3.4h-.192v-1.585a1.96 1.96 0 0 0-1.59-1.92zm41.579 2.128v1.378h-7.426V21.57c.159.148.371.24.607.24h6.202c.24 0 .456-.095.617-.249zm1.791-2.201c.101 0 .178.076.178.178v3.4h-.186v-1.585c0-.923-.645-1.695-1.508-1.9v-.093h1.516zm13.573 2.84c.396-.4.925-.62 1.489-.62h16.494c.901 0 1.668.566 1.977 1.359h-20.441c.106-.272.265-.524.48-.739zm36.094.739h-14.28a3.91 3.91 0 0 0-3.831-3.139h-16.494a3.853 3.853 0 0 0-2.754 1.145 3.875 3.875 0 0 0-1.073 1.994h-9.273v-3.401c0-1.08-.881-1.958-1.962-1.958h-1.516V9.952c0-5.488-4.472-9.952-9.969-9.952H62.058c-5.498 0-9.973 4.464-9.973 9.952v7.628H50.66a1.962 1.962 0 0 0-1.962 1.958v3.4h-9.37a3.904 3.904 0 0 0-3.825-3.138h-16.5a3.852 3.852 0 0 0-2.753 1.145 3.875 3.875 0 0 0-1.073 1.994H.892a.89.89 0 0 0-.892.89v113.923c0 .491.399.89.892.89h7.86v.742a4.623 4.623 0 0 0 9.246 0v-.742h118.01v.742a4.623 4.623 0 0 0 9.246 0v-.742h7.854a.891.891 0 0 0 .892-.89V23.829c0-.491-.4-.89-.892-.89z" mask="url(#b)"/>
    </g>
</svg>
