<?xml version="1.0" encoding="UTF-8"?>
<svg width="13px" height="13px" viewBox="0 0 13 13" version="1.1" xmlns="http://www.w3.org/2000/svg" xmlns:xlink="http://www.w3.org/1999/xlink">
    <!-- Generator: Sketch 48.2 (47327) - http://www.bohemiancoding.com/sketch -->
    <title>Shape</title>
    <desc>Created with Sketch.</desc>
    <defs></defs>
    <g id="Mask" stroke="none" stroke-width="1" fill="none" fill-rule="evenodd" transform="translate(-13.000000, -68.000000)">
        <path d="M25.7570231,77.9237287 L23.6053969,75.7587488 C23.2798988,75.4307469 22.7499211,75.4307469 22.4235883,75.7570796 L20.5114954,77.6691725 L16.3384424,73.4961195 L18.2530391,71.5815228 C18.5785373,71.2560246 18.5793719,70.7277161 18.2538738,70.4013834 L16.1005784,68.2447496 C15.7742456,67.9184168 15.2459371,67.9184168 14.9196044,68.2447496 L13.0033384,70.1601809 C13,76.1501812 17.8574337,81.0076149 23.8499379,81.0076149 L25.7553539,79.1021989 C26.080852,78.7767008 26.0816866,78.2500615 25.7570231,77.9237287 Z" id="Shape" fill="#4A90E2" fill-rule="nonzero"></path>
    </g>
</svg>