
<svg width="28px" height="23px" viewBox="0 0 28 18" version="1.1" xmlns="http://www.w3.org/2000/svg" xmlns:xlink="http://www.w3.org/1999/xlink">
	<!-- Generator: Sketch 50.2 (55047) - http://www.bohemiancoding.com/sketch -->
	<desc>Created with Sketch.</desc>
	<defs>
		<filter x="-3.3%" y="-6.2%" width="106.7%" height="117.5%" filterUnits="objectBoundingBox" id="filter-1">
			<feOffset dx="0" dy="2" in="SourceAlpha" result="shadowOffsetOuter1"></feOffset>
			<feGaussianBlur stdDeviation="2" in="shadowOffsetOuter1" result="shadowBlurOuter1"></feGaussianBlur>
			<feColorMatrix values="0 0 0 0 0   0 0 0 0 0   0 0 0 0 0  0 0 0 0.173460145 0" type="matrix" in="shadowBlurOuter1" result="shadowMatrixOuter1"></feColorMatrix>
			<feMerge>
				<feMergeNode in="shadowMatrixOuter1"></feMergeNode>
				<feMergeNode in="SourceGraphic"></feMergeNode>
			</feMerge>
		</filter>
	</defs>
	<g id="Page-1" stroke="none" stroke-width="1" fill="none" fill-rule="evenodd">
		<g id="users" transform="translate(-629.000000, -157.000000)" fill="#505E77">
			<g id="drop_down" filter="url(#filter-1)" transform="translate(458.000000, 145.000000)">
				<g id="Group" transform="translate(175.000000, 14.000000)">
					<g>
						<polygon id="Shape" fill-rule="nonzero" transform="translate(16.000000, 7.500000) rotate(-270.000000) translate(-16.000000, -7.500000) " points="18.5 6.5 8.5 6.5 8.5 8.5 18.5 8.5 18.5 11.5 23.5 7.5 18.5 3.5"></polygon>
						<path d="M0,0 L13,0 L13,2 L0,2 L0,0 Z M0,5 L10,5 L10,7 L0,7 L0,5 Z M0,10 L5,10 L5,12 L0,12 L0,10 Z" id="Combined-Shape" fill-rule="nonzero"></path>
					</g>
				</g>
			</g>
		</g>
	</g>
</svg>