<svg width="20px" height="20px" viewBox="0 0 20 20" version="1.1" xmlns="http://www.w3.org/2000/svg" xmlns:xlink="http://www.w3.org/1999/xlink">
  <g id="Page-1" stroke="none" stroke-width="1" fill="none" fill-rule="evenodd">
    <g id="1440_1_3" transform="translate(-1044.000000, -118.000000)" fill="#7383A1">
      <g id="icons-/-close" transform="translate(1042.000000, 116.000000)">
        <g id="ic_close_18px" transform="translate(2.000000, 2.000000)">
          <polygon id="Shape" fill-rule="nonzero" points="19.53 2.29672694 17.7032731 0.47 10 8.17327306 2.29672694 0.47 0.47 2.29672694 8.17327306 10 0.47 17.7032731 2.29672694 19.53 10 11.8267269 17.7032731 19.53 19.53 17.7032731 11.8267269 10"></polygon>
        </g>
      </g>
    </g>
  </g>
</svg>
