<svg xmlns="http://www.w3.org/2000/svg" xmlns:xlink="http://www.w3.org/1999/xlink" width="1724" height="913" viewBox="0 0 1724 913">
    <defs>
        <path id="a" d="M0 911h1723.971V.763H0z"/>
    </defs>
    <g fill="none" fill-rule="evenodd">
        <path fill="#EAEAEB" d="M114.46 469.445l2.234 4.666-.813 10.603 7.189 4.196.036.018 5.176 3.61 5.038-3.213.155-.101.183.02 7.426.67 7.99-4.476 1.073-5.915.093-.516.524.085 8.687 1.496 4.662-1.272.438-.113.19.41 3.182 7.019 7.655 3.057 1.778-1.467.852-8.637-4.847-3.94-.194-.156-.01-.25-.147-5.6-3.057-3.114-4.701-3.722-.231-.183.028-.291.864-8.488-9.382-7.848-.163-.143-.024-.213-.674-5.732-3.6-1.886-.301-.158.012-.337.136-3.6-1.368-2.67-5.473-.538-1.056 2.235-.124.265-.293.034-2.252.292-.311.042-.187-.253-1.448-1.912-2.342-.088-3.706 3.113-.23 6.124-.006.17-.11.139-2.227 2.859 1.766 1.436.195.156.004.248.077 2.998.012.597-.594-.05-3.963-.321-1.7 2.662.877 5.449.045.282-.206.195z"/>
        <path fill="#EAEAEB" d="M97.854 410.499l-4.356 5.012-2.135 3.096.702 4.354 4.246 2.18-.826 6.61 10.693 7.329-.188 12.69 7.983 16.664 12.38-11.634-.866-5.366-.03-.2.11-.174 1.986-3.114.174-.271.32.029 3.688.3-.05-2.156-1.985-1.61-.407-.331.325-.416 2.44-3.134.226-5.973-7.634-8.434-7.802-1.945-.098-.026-.087-.06-5.457-3.948-.158-.115-.047-.19-1.22-4.775-2.822-.582-2.882 1.483-.33.17-.278-.253z"/>
        <path fill="#EAEAEB" d="M106.433 382.768l-4.848 1.876-2.478 4.523-3.493.738-.507 5.751 4.796 3.07-1.6 10.727 5.618 5.211 2.712-1.4.17-.082.184.037 3.338.687.328.068.085.327 1.257 4.915 5.21 3.774 7.86 1.956.157.04.112.123 7.547 8.34 3.655-3.076.161-.133.203.007 2.8.105.25.01.156.204 1.416 1.872 1.649-.213.966-2.034-3.368-4.932-.091-.13-.007-.156-.167-4.696-3.714-1.343-.224-.079-.09-.218-1.029-2.47-.046-.114.005-.114.148-3.93-1.67-2.352-.103-.152.005-.178.317-8.423-11.99-16.952zM125.738 344.932l-7.904-.95-5.558-5.696.771-5.166-5.432-1.359-3.466 7.663-11.896 9.364.628 6.375 6.062-.059 4.47 3.92 1.427 8.135 5.21-.38 6.01 1.378-.152 4.035-7.898 9.62 14.25 1.076 18.255-12.337-1.318-2.353-.076-.135.005-.147.108-2.872.008-.224.166-.15 2.193-2.038.05-.04.061-.036 3.086-1.667-.256-2.404-3.58-.392-2.012 1.462-.295.211-.304-.188-3.106-1.935-.133-.083-.07-.143-1.822-3.85-.05-.105v-.126l-.022-3.48.003-.153.083-.134 1.955-3.112-8.489-.87-.157-.013-.123-.1z"/>
        <path fill="#EAEAEB" d="M152.642 297.08l-1.38 2.264-9.72 5.117-5.192 7.6-5.587 10.469-.9 8.622 1.244 5.245-3.92 4.469-.367 3.557.143.113 9.06.928 3.721-1.474.106-.041.12.004 7.186.419 4.06-3.481.173-.151.222.02 5.279.502.378.036.09.368 1.94 7.734 2.02-1.088.168-.09.185.032 3.909.754.224.045.123.192 1.835 2.84 10.325-.63 6.294-3.721 7.184-9.52.352-2.35-4.476-5.894-.093-.122-.016-.15-.508-5.23-11.474-2.48-.12-.026-.1-.08-5.435-4.291-.101-.078-.052-.11-6.882-14.18-.013-.024-.007-.02-2.133-5.654-2.178-1.258-4.524.99-.113.023-.1-.018zM123.163 383.574l11.92 16.862.107.15-.006.18-.316 8.42 1.665 2.352.107.15-.007.179-.15 3.998.894 2.146 3.758 1.355 5.808.503 1.922-3.12.055-.09.08-.058 11.352-8.517 1.486-8.988-4.62-4.527-.075-.076-.043-.101-2.22-5.382-.048-.12.008-.12.638-9.176-14.233-8.242z"/>
        <path fill="#EAEAEB" d="M160.744 409.13l-11.018 8.267-2.046 3.313-.17.283-.327-.03-5.596-.48.153 4.301 3.311 4.851 5.895.58.292.028.133.263 1.565 3.052.067.127-.005.138-.129 3.403 3.548 1.856.25.13.032.287.685 5.804 9.183 7.693 4.671-1.949 1.328-2.8-.548-4.627-1.225-2.855-.108-.255.147-.238 2.095-3.403.094-.147.159-.066 8.221-3.439 4.924-4.147.34-5.264-1.001-3.577-4.13-3.537-.11-.099-.05-.14-1.25-3.82-4.04-.56-6.476 2.726-.136.054-.145-.019-4.517-.626-.219-.029-.136-.176z"/>
        <path fill="#EAEAEB" d="M187.43 428.538l-.054.832-.012.229-.175.146-5.156 4.347-.064.05-.077.036-8.143 3.403-1.859 3.014 1.144 2.672.028.065.01.085.575 4.864.018.15-.066.14-1.478 3.119-.088.189-.19.079-4.865 2.028-.829 8.156 4.488 3.552.014.014.033.03 3.238 3.31.15.148.005.209.15 5.565 4.702 3.817 7.132-.963 14.444-6.777 1.882-2.408.591-11.766.002-.044.006-.036 1.664-7.962.031-.142.095-.106 6.475-7.12-4.769-5.7-3.014 1.762-.066.039-.07.019-2.599.66-.222.053-.194-.12-3.844-2.416-.126-.08-.068-.134-3.243-6.517zM156.55 379.631l-.63 9.09 2.128 5.153 4.74 4.65.2.196-.05.274-1.526 9.245 3.766 4.94 4.15.573 6.477-2.724.132-.055.15.02 4.015.555.462-2.355.027-.133.077-.1 3.02-3.822.018-.02.023-.026 5.985-5.977.146-3.868.008-.224.16-.15 3.577-3.32-.44-7.065-4.06-2.738-.13-.087-.064-.142-1.665-3.828-8.801.094-2.207 2.458-.311.345-.385-.254-7.468-4.936-2.113-.749z"/>
        <path fill="#EAEAEB" d="M190.467 399.878l-5.955 5.947-2.922 3.704-.51 2.58 1.267 3.868 4.141 3.54.123.106.043.158 1.068 3.823.023.089-.006.089-.237 3.685 5.925.52.301.025.133.27 3.308 6.654 3.524 2.21 2.302-.587 3.338-1.952.393-.229.29.349 5.271 6.304 3.65 1.418 3.34-.012 11.41-9.434.021-.017.031-.02 6.013-3.921-1.228-3.749v-.001l-2.02-6.23-10.597-19.48-6.889-.538-2.485 2.03-.32.265-.332-.24-2.656-1.92-.008-.009-2.616-1.98-1.39 1.053-.099.07-.118.026-4.88 1.024-.18.042-.168-.084-2.654-1.314-1.917 1.651-.15.128-.194.002zM187.349 376.617l1.718-1.986 2.76-3.69.334-8.887-4.017-2.418-.114-.07-.07-.12-2.99-5.105-.056-.102-.013-.111-.59-5.105-5.788 3.423-.108.065-.13.008-10.774.654-.31.018-.17-.263-1.879-2.907-3.498-.675-2.453 1.325-.605.327-.172-.67-2.01-8.033-4.675-.444-4.05 3.474-.165.143-.216-.012-7.278-.425-3.572 1.416-2.234 3.559.018 3.205 1.707 3.603 2.664 1.659 1.882-1.371.17-.124.206.026 4.22.46.431.048.043.433.334 3.189.04.357-.317.17-3.336 1.805-1.984 1.843-.094 2.496 1.41 2.522 14.43 8.355 9.62-5.086.207-.112.221.078 2.392.845.054.02.06.04 7.144 4.72 2.063-2.292.157-.177h.237z"/>
        <path fill="#EAEAEB" d="M185.308 348.292l.648 5.608 2.857 4.884 4.175 2.515.275.162-.013.318-.351 9.367-.007.168-.102.135-2.867 3.827-.027.029-1.677 1.94 1.616 3.702 4.151 2.8.217.146.016.266.473 7.586.014.256-.183.17-3.603 3.342-.123 3.29 4.844-.081 2.04-1.755.272-.237.318.16 2.805 1.392 4.577-.964 1.622-1.225.323-.247.323.245 2.933 2.222 2.321 1.676 2.335-1.912.165-.136.215.017 7.088.556 2.827-3.975 2.02-5.124-1.647-1.641-.036-.034-.024-.03-3.019-4.2-.053-.074-.029-.095-2.271-7.951-.049-.171.062-.161 2.021-5.524.039-.104.072-.08 6.151-6.578.027-.026.017-.016 3.775-3.22.974-4.078-4.447-5.678-11.087-.268-.161-.004-.131-.091-11.946-8.32-.256-.18.03-.31.453-4.625-1.424-.781-1.285 1.193-.129.12-.182.019-10.522 1.06-.143.94-.02.139-.08.106z"/>
        <path fill="#EAEAEB" d="M232.842 360.939l-3.043 2.594-6.05 6.471-1.923 5.254 2.2 7.698 2.941 4.091 1.863 1.852.248.249-.127.33-2.174 5.516-.024.068-.036.046-2.844 4.005 10.34 19.009 7.868-4.315.124-.066h.14l9.776.042 10.978-6.071-2.009-6.368-10-13.858-5.113-2.471-.104-.049-.074-.085-3.829-4.475-.29-.339.281-.349 3.075-3.792 1.416-4.879-2.347-2.528-5.44 4.149-.398.304-.33-.375-4.795-5.513-.124-.146-.006-.192z"/>
        <path fill="#EAEAEB" d="M246.765 369.804l.685.734.206.221-.087.295-1.529 5.272-.034.103-.068.086-2.862 3.532 3.467 4.053 5.133 2.48.125.056.075.112 10.136 14.04.053.075.025.08 2.024 6.424 3.491-.56 2.653-3.528.154-.206.26-.008 6.457-.254.234-.009.166.171 2.429 2.462 4.122-2.155 1.697-13.959-6.215-3.728-.255-.156-.007-.299-.102-5.777-2.836-2.75-4.753 1.388-.218.066-.199-.115-15.185-8.822z"/>
        <path fill="#EAEAEB" d="M262.472 371.64l9.064 5.267 4.828-1.413.3-.087.224.217 3.214 3.12.159.153.004.222.101 5.703 6.264 3.757.3.18-.044.344-1.706 14.015 19.065.876 2.403-1.473.143-.089.171.011 6.266.403.37.023.113.35 1.553 4.968 4.984 2.407.096.047.068.076 4.161 4.562 7.314-6.91.168-.16.229.013 17.095.967.72-10.77.014-.198.14-.146 3.45-3.49-3.607-3.888-9.107 1.917-.211.046-.185-.12-13.344-8.498-.124-.08-.066-.134-7.678-15.484-12.123-7.976-18.943-1.695-6.675 4.308-.128.085-.156.003-7.386.042-2.309 3.342-.071.101-.11.064zM234.592 354.655l8.292-3.384-.98-3.863-.032-.122.028-.122 3.027-13.715.106-.47.476.05 7.024.752 9.253-8.351-.781-10.351-8.722-.274-.08.563-.756-.726-9.293-8.926-5.771.132-.21.006-.154-.14-6.676-5.887-.131-.117-.04-.181-1.03-5.11-4.99-3.844-1.935 1.376-1.043 4.666-.104.477-.484-.058-12.64-1.566-.174-.02-.132-.125-4.112-3.886-12.256-3.702-.098-.03-.08-.061-6.343-4.966-.03-.022-.033-.035-3.315-3.587-3.47 3.217-2.263 8.09-.025.092-.052.074-3.877 5.518-.13.188-.224.035-8.657 1.337 1.962 5.196 6.816 14.043 5.24 4.134 11.739 2.54.386.083.037.39.53 5.47 4.52 5.953.14.183-.031.219-.101.67 10.068-1.012 1.437-1.333.284-.261.34.185 2.074 1.138.31.169-.032.354-.46 4.664 11.557 8.046 11.177.27.255.006.154.2z"/>
        <path fill="#EAEAEB" d="M287.342 358.03l-6.717-6.916-.222-.23.097-.306 3.054-9.676-4.938-6.547-4.51.068-.172.002-.14-.098-11.41-7.993-9.31 8.404-.18.162-.234-.026-6.787-.726-2.9 13.119 1.065 4.195.115.453-.432.175-8.842 3.605-1 4.167.202 6.663 4.332 4.986 5.436-4.142.387-.294.33.355 1.265 1.368 10.268-.752.167-.014.139.083 4.99 2.898 9.455-5.27 2.396-3.471.162-.231.276-.002 7.51-.042zM257.347 522.84l.146 4.04 1.516 7.013 4.807 6.533.127.18-.024.202-.934 7.717 4.111 6.445.069.108.011.123.366 3.487.004.043-.006.056-.27 3.518 11.976-.483 8.898-7.154.12-.1.157-.02 4.44-.486 8.274-2.259 3.241-5.474.079-.135.136-.068 12.506-6.398 1.664-2.888 2.39-6.958.889-3.197-5.771-9.053-2.522-2.425-2.866 1.806-.093.058-.105.02-2.498.398-.345.061-.19-.298-4.7-7.324-1.542 1.064-6.493 6.34-.053.055-.066.034-3.712 2.01-.195.103-.213-.063-4.58-1.328-.122-.034-.095-.093-6.841-6.517-4.644-3.683-4.432.306-7.389.685-3.071 4.033-.197 1.807 2.278 1.245.349.187-.083.39-1.004 4.761-.06.285-.274.106zM234.644 419.107l1.9 5.856 1.322 4.028 8.9 9.715.13.14.01.191.714 11.491 3.677 7.59 3.253.669.91-2.045.142-.32h.347l7.816-.027 1.245-1.86.286-.43.441.272 2.583 1.586.228.139.03.269.33 3.382 2.88 1.793 6.63-4.372 1.13-8.638.048-.369.358-.086 8.46-2.053.862-12.494.035-.495.497-.003 7.575-.044 4.191-3.104.307-.225.313.215 7.957 5.418 6.773-8.765.33-.428.425.335 7.447 5.821 5.414-2.15 2.433-2.677-4.312-6.079-8.97-9.838-5.103-2.464-.212-.102-.069-.223-1.512-4.833-5.73-.367-2.396 1.469-.137.086-.168-.011-19.664-.899-4.595 2.402-.352.18-.28-.282-2.54-2.574-5.967.233-2.632 3.49-.129.176-.218.036-4.067.655-11.399 6.302-.12.066-.143.002-9.783-.042z"/>
        <path fill="#EAEAEB" d="M337.185 472.115l-4.303 3.719-.5.434-.32-.582-2.738-4.978-8.172-2.904-11.985 1.208-4.45 1.572-.007.05-.363.072-7.936 1.67-3.572 1.846-1.01 5.819-.066.4-.412.042-7.748.698-5.484 1.35.802 2.225 6.582.556.263.023.143.223 5.016 7.746 9.464 1.002.456.047.028.46.283 5.639.009.217-.156.169-1.934 2.069 4.145 5.528.036-.024.3.465 4.805 7.496 2.045-.327 3.123-1.97.356-.221.304.29 2.872 2.753.042.039.039.058 5.93 9.32.132.203-.063.229-.406 1.45 4.636 5.628.18.212-.077.268-1.708 6.329 2.728 6.697 1.324.05 2.034-4.155 2.55-5.125.164-.324.36.027 4.03.319.14.01.118.08 5.167 3.467 1.332-1.72-.728-5.865-3.61-3.888-.18-.198.048-.265 1.062-5.855.097-.516.515.082 9.768 1.532 8.077-2.255 1.287-6.503-2.814-.527-.2-.04-.122-.16-1.77-2.251-.355-.454.479-.324 4.307-2.906.269-1.413-3.633-.57-.38-.065-.065-.376-.418-2.374-.036-.2.105-.171 2.27-3.715-1.327-1.08-7.244 3.609-.176.086-.19-.043-8.345-1.996-.224-.06-.116-.201-3.317-5.852-.037-.064-.015-.057-1.927-6.978-.02-.075v-.087zM377.66 646.422l3.45-4.204 10.99-.458 1.154-7.749 5.294-2.684 5.47.492 6.434 5.44 4.174-3.594-4.597-8.26-2-8.153 5.691-5.562 4.953-1.254 7.192 8.348 15.506 1.565.006-.043.018-.098.053-.087 4.586-7.509-11.175-7.289-.276-.178.034-.32.627-6.125.026-.247.204-.14 15.87-10.952.566-9.969-1.078-7.158-3.982-4.106-2.276 1.281-.194.11-.218-.058-3.924-1.14-.12-.036-.094-.085-15.893-14.694-2.884.613-1 5.501-.017.092-.048.085-3.688 6.271.34 3.243 3.277 4.731.19.27-.163.29-2.17 3.961-.08.146-.149.074-3.09 1.57-.353.177-.274-.29-5.48-5.732-2.15-1.66-3.23-.43-3.976 1.645-.305.125-.246-.215-3.266-2.818-.192-.169.01-.248.098-7.063-2.799-3.98-3.618-.44-7.07 3.92-1.909 4.94 3.57 8.91 3.25 2.84 14.816 5.508 3.393-1.619.021-.004 2.57-1.085.351-.148.257.284 4.202 4.703.394.442-.479.35-3.289 2.404-.082.058-.099.03-4.648 1.251-2.006 6.211-.127.386-.407-.016-2.857-.107-.128-.004-.117-.06-4.53-2.568-9.407 4.827-5.945 9.32-1.043 5.755-.065.365-.362.066-6.932 1.342-.799 4.653-.004.011-.942 4.728 11.224 3.901.23.082.091.221 2.183 5.237.083.195-.076.195-1.322 3.523-.058.153-.13.095-4.383 3.176zM262.86 325.358l11.406 7.988 4.608-.068.268-.005.165.22 5.27 6.985.164.222-.083.261-3.042 9.634 6.81 7.011 19.064 1.706.136.014.109.07 12.353 8.13.123.076.066.134 7.677 15.484 13.029 8.296 9.19-1.932.3-.06.203.219 3.792 4.09 6.619-6.344-5.464-5.545-.256-.261.146-.333 1.562-3.511.156-.348.379.029 8.366.666 9.098-5.475.23-6.152-6-3.29-.421-.231.185-.443 2.138-5.11-5.615-2.111-3.796 1.556-.524.216-.187-.538-4.073-11.603-11.043-.76-.234-.018-.147-.182-6.771-8.404-6.547-4.487-.042-.032-.037-.034-6.188-6.302-.013-.009-.02-.027-18.088-22.101-.157-.189.042-.239 1.827-10.641.028-.159.112-.119 7.253-7.689-4.523-1.698-.368-.137.015-.384.274-7.302-5.678-.144-3.972 3.519-.17.154-.226-.017-7.958-.662-.213-.021-.147-.161-3.593-4.06-3.573-.222-5.334 1.563-8.756 6.079-6.001 11.476-.172.328-.365-.044-9.241-1.064-5.275 2.57-3.897 5.572 3.724 4.377.076.093.035.118 1.432 5.327.027.105-.018.107-.654 4.653 9.085.283.483.016.034.48z"/>
        <path fill="#EAEAEB" d="M258.09 206.603l-9.536-.006-11.984 3.88-.93 9.49.986 4.365-3.565 2.754-2.347-6.728-4.6-.46-6.946-7.19-9.148 5.43-6.06.458.062 8.26 3.992 7.03.123.216-.086.232-3.657 10.027 1.384 5.045 5.704-2.593.24-.107.23.12 3.736 1.96.148.073.076.154 2.71 5.241 5.106-.49.242-.02.177.17 3.203 3.095 2.776.416 1.518-1.88.242-.299.362.136 5.368 2.02.334.123.015.354.2 4.371.006.155-.08.135-1.602 2.777 1.42 2.802 6.21.41.407.022.084.401.694 3.308 3.604.63.564.101-.13.552-1.247 5.23 3.273 7.043.044.092.005.097.413 6.131 4.83-2.35.141-.074.153.02 9.028 1.038 5.89-11.263.057-.11.113-.079 8.94-6.209.073-.049.083-.027 5.5-1.61.09-.025.09.004 7.592.463 4.087-3.03-6.984-9.863-4.657-1.048-.319-.072-.085-.316-1.95-7.469-2.943.17-.66 4.45-.09.596-.583-.156-2.334-.633-.227-.063-.107-.205-1.667-3.153-2.342.596-.533 5.243-.067.622-.603-.16-3.237-.846-.25-.069-.106-.239-1.7-3.933-9.08-.166-.29-.004-.157-.248-3.439-5.528-8.593-.323-.255-.01-.154-.204-2.246-2.995-.263-.352.29-.328 15.396-17.259zM594.16 696.932l14.902.895-6.293 6.116 11.714 21.107 6.117-3.285.289-.149.268.176 4.388 2.986 2.779-1.796.253-.166.268.13 6.005 2.846 28.956-8.75.374-.115.222.323 6.833 9.867.071.095.019.107 1.23 6.193 7.62 7.925 11.115-10.027.347-.318.358.307 3.754 3.183 3.67-2.606.173-.125.211.027 12.306 1.642 6.463-5.445 1.729-38.184-4.964-.187-7.263 5.603-.443.342-.322-.452-2.85-4.014-.119-.164.02-.2 1.407-14.405-20.709-1.36-.31-.025-.135-.27-3.483-7.05-10.776-.114-.421-.003-.094-.414-1.785-7.767-6.418-9.06-35.645-18.637-.441 11.746-.012.304-.271.146-6.994 3.736 1.707 7.777.162.728-.739-.078-8.849-.922-7.015 2.617-4.305 7.048.11 20.87.004.113-.051.116zM258.45 512.577l.014-.148.093-.121 3.306-4.34.145-.188.234-.021 7.63-.703.015-.005 4.64-.316.209-.015.164.128 4.814 3.822.012.005.025.027 6.768 6.445 4.246 1.235 3.458-1.87 6.47-6.315.029-.031.038-.028 1.579-1.097-4.39-5.848-.27-.362.306-.325 2.083-2.233-.248-4.946-9.262-.98-.254-.023-.138-.217-5.017-7.746-6.66-.567-.34-.03-.12-.323-2.22-6.125-6.962-8.962-1.035 1.177-1.54 6.427-.025.104-.064.084-1.74 2.414-.242.339-.391-.153-11.03-4.302-.438 11.634-.008.204-.141.145-2.5 2.607 1.989 4.212.1.207-.086.22-1.098 2.773-.045.11-.103.09-9.394 8.247-.095 6.562 11.67 6.884 4.16 1.56 3.063-1.176.862-4.085-2.241-1.227-.315-.174.04-.352zM376.929 647.358l-.141-.111-.053-.177-1.583-5.413-.105-.362.306-.22 4.56-3.298 1.19-3.167-2.01-4.826-11.296-3.927-5.37 1.206-3 6.385-.168.352-.392-.051-6.87-.928-.193-.026-.13-.141-6.047-6.52-11.52-3.091-.24-.063-.105-.228-2.34-4.975-.16-.344.269-.262 4.715-4.672-2.734-3.109-.155-.174.019-.228.282-3.022.036-.376.366-.091 4.228-1.083.713-7.084-5.99.073-2.98 1.831-.745.456-.071-.871-.693-8.448-.034-.417.394-.135 2.745-.953.492-4.974-2.597-3.127-.136-.167.014-.211.774-11.746-3.091-4.685-.093-.149.006-.166.59-15.696-2.887-7.076-.067-.171.047-.171 1.688-6.234-3.982-4.839-.202.726-.007.03-2.415 7.02-.015.049-.027.049-1.77 3.069-.08.14-.144.076-12.506 6.399-3.274 5.528-.113.188-.21.055-8.52 2.325-.042.009-.04.005-4.332.478-8.913 7.167-.136.111-.177.007-12.51.506-.343.427-.555 6.531 3.143 8.49 4.069-.711 2.978-2.49 5.947 3.111-.441 4.028-1.87 3.681 1.932 2.38 5.686 2.233 2.004 8.155 1.926 10.177-2.833 6.246 2.399 5.281 6.783-3.78 2.848.97 1.856 4.397 1.159 7.552 4.202 3.332 5.322-3.266 4.889.476 9.068 4.379-.451 4.31 1.888 3.536 4.58 1.043 3.897-3.898 3.885 4.19 5.069 3.363-1.456 8.026.979 4.655 4.972 5.957 4.267 1.608 4.424-2.437 3.415 1.284 2.399 5.288 10.533 3.862 4.74-3.288 4.864-6.455-7.485-18.155z"/>
        <path fill="#EAEAEB" d="M261.974 548.941l-.104-.166.02-.191.937-7.692-4.749-6.457-.07-.096-.027-.111-1.546-7.169-.011-.046-.001-.05-.154-4.115-4.063-1.525-.053-.022-.032-.018-11.971-7.065-.271-.159.006-.31.095-6.667-11.873-2.519-.096-.023-.08-.046-12.439-7.913-.259-.165.011-.305.156-4.155-1.658-3.167-6.139-.87-.26-.036-.127-.22-8.513-14.585-12.266 5.753-.072.037-.08.007-7.019.948-.864 8.717-.021.224-.171.136-1.99 1.652.295 6.974 3.44 4.866 5.365 1.338.15.038.108.114 9.379 9.806.158.159-.009.232-.265 7.074-.008.199-.144.15-4.483 4.713-.427 4.586 3.463.378 4.075-1.567.727-.284.001.791-.004 7.812 2.308 3.619 5.644 1.348.417.105-.005.426-.183 13.079 5.306 5.448-.795 5.738-1.611 4.559 2.951 5.888 6.45-2.644 3.408-6.228 3.901-3.889 8.871 2.065 5.051-3.853 3.468-.16 2.518 2.119 8.957-.241 6.694-1.48 4.492-.819.283-.349.302-3.908-.348-3.318z"/>
        <path fill="#EAEAEB" d="M216.332 495.841l12.092 7.69 11.95 2.541 9.272-8.14.963-2.436-2.043-4.337-.156-.336.256-.262 2.612-2.729.439-11.683-4.281-.453-.313-.037-.127-.29-2.77-6.632-6.861-1.486-2.358 1.892-.498.397-.307-.557-4.03-7.263-.06-.108-.004-.124-.325-7.956-7.264-.273-.375-.014-.117-.363-2.95-9.374-3.236.015h-.1l-.093-.038-3.535-1.374-6.442 7.082-1.625 7.775-.596 11.89-.008.167-.105.138-2.066 2.644-.08.102-.114.06-1.393.648 8.327 14.28 6.154.864.275.041.129.242 1.85 3.54.068.127-.006.143z"/>
        <path fill="#EAEAEB" d="M230.322 452.48l.496.019.02.497.339 8.315 3.655 6.596 2.064-1.654.2-.161.247.053 7.378 1.601.279.06.107.259 2.757 6.599 3.894.414.006-.181.698.274 11.348 4.426 1.444-1.995 1.542-6.45.03-.129.09-.103 1.534-1.736 2.535-3.887.244-2.828-3.112-1.944-.221-.138-.03-.262-.33-3.383-1.92-1.178-1.113 1.666-.16.236h-.287l-7.755.026-.944 2.126-.174.39-.427-.085-3.936-.81-.262-.053-.114-.235-3.837-7.918-.045-.091-.004-.112-.711-11.413-8.542-9.326-5.95 3.881-11.262 9.31 2.843 9.047zM303.12 452.197l-14.23-5.184-8.332 2.026-1.111 8.52-.031.242-.204.135-6.906 4.554-.265 3.035-.012.136-.074.109-2.423 3.716 7.18 9.242.053.065.028.08.959 2.645 5.623-1.391.029-.01.051-.004 7.387-.662.986-5.67.044-.264.238-.123 3.88-2.003.07-.034.065-.016 7.64-1.607 1.01-6.296z"/>
        <path fill="#EAEAEB" d="M304.91 469.373l3.957-1.397.058-.022.068-.004 12.171-1.226.122-.013.113.04 8.476 3.015.192.069.1.179 2.516 4.577 4.54-3.928.034-9.595-1.769-4.771-5.625-6.744-15.026-3.227-.13-.026-.108-.095-3.425-2.994-.138-.122-.034-.183-1.223-6.565-7.873-5.363-4.028 2.979-.14.103-.175.003-7.25.04-.827 11.987 14.3 5.21.301.109.048.317 1.71 11.64.016.08-.012.082zM419.209 557.34l.948-5.238-2.817-.534-.071-.015-.064-.026-9.761-4.753-.055-.026-.061-.045-4.076-3.526-.121-.105-.044-.157-1.352-4.788-4.088.9-.357.076-.203-.3-1.757-2.595-.074-.108-.017-.13-.51-4.399h.006l-.493-2.687-4.514-1.269-.374-.109-.016-.385-.246-5.938-10.606-.885-.514-.036.019-.516.296-7.857-4.638-.026-5.412 4.547-.16.132-.205-.007-4.757-.179-1.365 6.91-.064.32-.32.087-8.507 2.375-.116.033-.112-.015-9.363-1.47-.921 5.076 3.545 3.815.116.123.019.18.775 6.26.029.218-.134.175-1.77 2.287-.31.398-.414-.276-5.47-3.672-3.53-.28-2.388 4.801h-.002l-2.187 4.46-.154.316-.347-.013-1.482-.056-.567 15.1 3.092 4.694.1.147-.012.178-.774 11.723 2.606 3.134.142.174-.023.221-.543 5.538-.035.34-.328.113-2.674.93.589 7.16 2.358-1.449.124-.075h.152l6.738-.089.6-.003-.06.594-.81 8.057-.035.37-.366.097-4.224 1.08-.224 2.412 2.916 3.314.334.373-.362.36-4.804 4.762 2.076 4.405 11.429 3.071.154.036.099.116 6.023 6.493 6.286.85 2.943-6.267.117-.233.257-.057 5.432-1.225.967-4.82.862-5.023.064-.369.363-.069 6.93-1.34.999-5.496.019-.098.057-.092 6.083-9.54.082-.122.128-.068 9.79-5.022.253-.129.25.141 4.673 2.64 2.322.086 1.972-6.096.09-.284.284-.077 4.839-1.3 2.725-1.99-3.551-3.984-2.2.928-3.592 1.715-.206.098-.213-.08-15.114-5.618-.087-.035-.077-.066-3.423-2.997-.096-.079-.05-.125-3.697-9.23-.075-.197.073-.196 2.05-5.312.072-.183.17-.093 7.396-4.1.154-.088.172.023 4.024.488.234.026.14.2 3.04 4.325.098.146-.003.173-.102 6.984 2.824 2.44 3.803-1.572.132-.057.14.018 3.52.47.147.015.109.093 2.296 1.77.025.023.033.034 5.235 5.474 2.585-1.313 1.932-3.529-3.165-4.565-.078-.114-.016-.138-.372-3.547-.015-.175.084-.152zM199.888 542.545l-.21-.05-.115-.186-2.51-3.931-.087-.134.002-.154.005-7.194-3.469 1.337-.123.045-.126-.019-4.118-.446-.528-.055.052-.528.494-5.296.016-.188.13-.137 4.469-4.695.25-6.654-9.11-9.526-5.41-1.352-.194-.05-.115-.16-3.643-5.163-.093-.125-.009-.156-.297-7.05-7.826-3.13-.196-.082-.091-.197-3.084-6.79-4.333 1.177-.113.026-.118-.018-8.28-1.42-1.024 5.636-.042.247-.221.123-8.06 4.517 1.017 14.533.026.328-.287.17-9.15 5.486.745 11.332.008.155-.076.136-3.874 7.07-.145.274-.313.008-6.42.16-.24.004-.167-.18-2.802-3.018-7.713 4.034 3.475 5.663.13.202-.072.24-3.564 11.243 5.416 8.223 14.1 2.063 1.608-3.959.153-.378.407.045 4.79.585.395.046.067.4 1.251 7.288 5.41.93 4.936-2.864.19-.11.208.057 16.971 4.177.242.058.11.216 4.173 8.149 9.86-2.851 1.722-7.438 8.534-4.3 9.02-1.971 3.253-.858.172-12.265z"/>
        <path fill="#EAEAEB" d="M161.676 598.182l1.05-4.867 7.754-6.64-6.327-9.527 3.282-1.555 4.305-1.706-3.991-7.797-16.522-4.066-4.538 2.63 2.746 8.114.05.144-.04.154-3.727 14.902 3.643 7.18.11.215-.086.22-4.388 11.325 1.305 7.11.132.736-.741-.107-7.032-1.053-3.79 1.49-.418.163-.235-.379-2.406-3.93-2.385 2.657 3.377 8.983.137.37-.316.242-5.171 3.943-.044.035-.044.018-4.565 2.2 5.527 8.404 8.924 3.635 24.23.332-1.66-9.59 6.096-.925 5.59-25.768-3.833-5.627zM61.41 493.677l-7.489 7.227 15.217 9.807-4.729 2.994-7.887-5.203-4.762 3.467 2.557 5.562 5.674.212.254.01.157.204 6.49 8.66.211.286-.174.304-5.406 9.51 6.278 8.38.208.272-.167.305-1.669 3.05-.624 6.471 3.69 4.896 3.741-3.988.254-.272.344.145 5.902 2.47 2.31-3.54.254-.389.418.197 4.73 2.178.326.148-.013.36-.273 7.267 5.593 2.874.305.155-.013.34-.265 7.051 2.77 4.901 7.016-.47 2.422-4.077.166-.273.317.012 11.371.428 7.177-7.394-.198-3.752-6.346-.99-.443-.066-.013-.448-.183-5.466-5.608-8.506-.137-.21.076-.246 3.563-11.257-3.648-5.95-.3-.489.508-.265 8.588-4.492.363-.184.281.296 2.917 3.145 5.871-.144 3.65-6.659-.757-11.503-.022-.325.283-.169 9.15-5.488-.988-14.09-6.958-.629-5.182 3.308-.3.193-.295-.203-5.465-3.813-6.709-3.91-.225 2.884-8.92-.62-3.656 5.054-4.635.404-5.84 9.593-9.354 3.114-6.262-10.047z"/>
        <path fill="#EAEAEB" d="M121.234 628.956l.552-.273 5.067-2.442 4.806-3.663-3.351-8.915-.116-.302.22-.24 3.082-3.43.48-.535.379.61 2.547 4.152 3.502-1.372.136-.057.137.025 6.438.963-1.197-6.537-.026-.15.05-.134 4.355-11.237-3.622-7.142-.09-.184.048-.191 3.734-14.938-2.733-8.075-5.657-.978-.378-.063-.063-.376-1.247-7.268-3.986-.48-1.61 3.958-.16.39-.417-.057-14.118-2.065.156 4.532 6.335.99.43.066.022.435.235 4.418.014.232-.162.166-7.508 7.742-.166.169-.242-.01-11.29-.423-2.404 4.038-.145.243-.281.019-7.638.515-.338.026-.166-.298-3.007-5.324-.072-.134.006-.15.258-6.87-5.595-2.867-.306-.155.014-.342.272-7.25-3.984-1.838-2.296 3.522-.246.375-.412-.17-5.974-2.497-3.613 3.85 3.74 4.954 4.12-.59.339-.05.188.294 2.547 3.947 5.362 1.753.26.084.086.257 2.146 6.447 5.225 9.784.093.172-.042.19-1.928 9.362 5.517 10.87.036.069.01.069 1.69 8.486.013.067-.006.075-.71 8.555 8.7 9.384.074.083.04.113 1.83 5.422 8.984.53 8.744-3.641-5.382-8.181z"/>
        <path fill="#EAEAEB" d="M106.414 635.788l-8.465-9.124-3.325 2.39-.155.112-.198-.015-9.396-.743-5.255 3.82 1.669 3.678.2.448-.424.239-4.649 2.65 5.462 8.465 6.15 1.393.334.075.073.33 1.716 7.686.103.457-.438.163-4.883 1.818-.119.046-.127-.012-4.839-.556-6.695 11.859-.329.584-.499-.453-4.654-4.244-2.976 3.106-.184.19-.27-.032-11.817-1.482-3.186 2.96.253 8.668 7.638 11.83-1.031 12.085-1.662 5.714 6.871 9.206 3.513-1.315 2.148-3.38 4.235 2.465 4.56 1.618 5.608-3.256.573-15.272 4.558-21.48 14.334-12.74 1.673-13.79-1.215-6.107 6.894-4.796z"/>
        <path fill="#EAEAEB" d="M50.31 657.737l1.837 5.597.699 4.267 11.263 1.417 3.15-3.285.362-.384.39.357 4.54 4.145 6.543-11.585.17-.31.354.045 5.066.58L89 656.97l-1.541-6.897-6.026-1.368-.213-.045-.123-.184-7.81-12.107-6.409-.62-3.126 1.25 3.004 13.297.1.439-.418.177z"/>
        <path fill="#EAEAEB" d="M62.745 637.4l-2.863 1.142-3.031 8.473-.053.154-.137.094-4.123 3.056-.076.054-.092.026-5.705 1.669.042 2.405 2.96 2.37 15.943-6.748z"/>
        <path fill="#EAEAEB" d="M55.89 646.501l3.06-8.54.081-.227.228-.09 6.531-2.612-4.882-4.253-2.012 3.192-.215.34-.385-.114-12.944-3.654-9.899 2.764-.226.154.062 9.9 11.326 5.912.03 1.682 5.334-1.558z"/>
        <path fill="#EAEAEB" d="M45.35 629.425l.146.042 12.704 3.59 4.35-6.9-1.593-5.872-6.013-.226-.204-.008-.15-.147-11.466-11.125-8.407-.7-7.256 5.191 5.816 6.925-.06 9.233 1.733 2.923.043-.03.084-.029 10.13-2.823z"/>
        <path fill="#EAEAEB" d="M34.417 606.98l.194.014 8.21.681-.051-8.634-.001-.305.256-.156 4.513-2.77-5.846-12.099-2.296 4.192-.18.328-.37-.05-7.573-1.087-.236-.039-.135-.19-3.955-5.846-13.29 4.053 6.628 12.124-.271 7.206 6.757 8.047 7.486-5.357z"/>
        <path fill="#EAEAEB" d="M38.093 515.027l-5.654-3.1-10.978.164-4.23 5.039-7.56-13.847-6.56 5.523.2 10.112L0 522.544l1.278 4.377 4.481 3.635-.558 7.193 2.161 11.627-1.265 10.627-2.679 17.506 2.188 3.26 4.686-1.846 2.838 5.192 13.883-4.236.378-.115.221.325 4.044 5.977 6.974 1 5.418-9.887.1-.182.19-.068 5.471-1.956-1.922-3.127-.167-.272.164-.282 3.215-5.517-3.179-3.044-.412-.395.421-.388 4.018-3.728.505-3.398.044-.303.285-.114 4.478-1.838.452-.186.226.436 2.7 5.163 3.845-2.911.631-6.56.012-.103.055-.103 1.556-2.84-6.283-8.388-.212-.281.171-.304 5.41-9.51-6.127-8.172-5.749-.216-.333-.012-.135-.303-3.238-7.041-10.186-9.99-1.962 13.78zM19.96 577.652l-.356-.18-7.47-3.888-.282-.15-.282-.146-.01-.315-.007-.325-.143-6.818-.013-.516-.007-.514.513-.032.518-.03 7.065-.442.16-4.235-.006-.001.01-.266.01-.275.226-.151.224-.154 8.162-5.57-4.948-3.356-.004-.001-.065-.048-.066-.045-.053-.063-.054-.071.001-.006-6.123-7.844-.147-.185-.146-.186.041-.235.04-.233 1.025-5.974.115-.661.111-.648.615.242.615.245 5.531 2.214.168.069.173.07.095.164.093.158 4.22 7.275 6.217.234.507.019.505.019.01.51.01.504.136 6.357 4.305 3.87.196.182.204.175-.024.266-.02.26-.732 8.797-.015.167-.015.167-.104.126-.109.133-6.722 8.169-.836 1.01-.832 1.02-.117-1.314-.115-1.31-.634-7.325-10.456 10.705-.283.287-.279.28-.346-.181z"/>
        <path fill="#EAEAEB" d="M92.866 588.174l-5.152-9.652-.02-.03-.016-.053-2.077-6.233-5.285-1.73-.18-.058-.105-.166-2.466-3.817-4.095.591-.312.044-.19-.255-8.077-10.712-4.11 3.117-.508.378-.292-.557-2.768-5.295-3.742 1.534-.49 3.287-.03.193-.138.124-3.736 3.462 3.072 2.946.304.292-.212.363-3.27 5.611 2.102 3.42.348.565-.624.218-5.905 2.108-2.567 4.685 6.389 13.232.213.437-.416.252-4.664 2.86.049 8.695 11.295 10.958 6.2.234.396.014.102.384 1.763 6.48.058.226-.124.202-2.1 3.33 5.542 4.821 6.62.641.256.028.144.217 1.786 2.774 4.277-2.435-1.651-3.633-.18-.398.356-.26 5.767-4.19.16-.12.198.02 9.4.745 3.347-2.408.702-8.47-1.658-8.34-5.562-10.965-.083-.172.035-.18zM32.29 565.303l.74 8.493 6.72-8.169.732-8.789-4.478-4.025-.176-.162-.004-.232-.14-6.587-6.511-.244-.296-.012-.146-.253-4.37-7.537-5.528-2.207-1.028 5.973 6.118 7.844h.002v.007l5.599 3.8.653.44-.647.44-8.812 6.018-.005.004-.177 4.72-.018.483-.485.031-7.55.468.146 6.818 7.472 3.89 11.272-11.537.817-.838zM205.075 250.904l-.163-.611-1.39-5.058-2.681 1.985-1.726 4.03-.181 13.55-.002.399-.386.108-10.116 2.849-.793 4.63-.073.423-.43.022-3.298.179-1.025 3.265-.042.14-.105.094-1.504 1.399 3.285 3.55 6.236 4.882 12.277 3.707.124.036.092.088 4.075 3.853 11.985 1.484.98-4.39.047-.2.169-.122 2.423-1.725.324-.232.315.243 5.464 4.207.156.12.044.2 1.034 5.129 6.378 5.63 5.784-.133.224-.002.159.153 8.7 8.355.58-4.096-1.373-5.105-3.92-4.601-.268-.316.237-.341 4.112-5.867-.445-6.64-3.317-7.125-.08-.171.043-.18 1.156-4.85-3.397-.594-.36-.063-.075-.357-.684-3.267-6.11-.398-.305-.02-.136-.273-1.691-3.337-.131-.26.144-.25 1.667-2.887-.174-3.863-4.672-1.76-1.47 1.817-.192.239-.303-.044-3.25-.487-.168-.026-.123-.117-3.15-3.047-5.215.5-.36.033-.167-.321-2.796-5.408-3.36-1.76-6.031 2.745z"/>
        <path fill="#EAEAEB" d="M147.546 283.042l6.848 1.989 1.172 7.258-2.327 3.81.451.085 4.618-1.008.202-.044.178.1 2.354 1.364 8.901-1.371 3.69-5.26 2.284-8.151.042-.151.108-.1 5.763-5.348 1.093-3.483.114-.354.372-.021 3.243-.171.78-4.542.055-.337.326-.092 10.056-2.831.175-13.252.001-.104.041-.097 1.827-4.267.057-.133.116-.086 3.295-2.441 3.578-9.803-3.942-6.937-.069-.12v-.14l-.06-8.326-5.606.424-9.195 6.582-5.459 7.01-10.066-.956-6.43 9.862-7.239.593-.58 7.77-10.924 6.517.197 10.11 4.117 5.639-5.127 5.87zM378.147 159.164l-.058.23-2.019 8.448 8.732 4.785.14.074.074.14 1.417 2.643 2.96-14.682 3.276 5.029-1.833 10.324 3.977 9.385.578 15.319 5.705 9.452 1.081 9.564 21.976 14.393 13.93-2.074 10.91-13.734 3.441-14.878-3.939-18.045 1.553-25.92-2.523-9.617-6.774-11.801-.815-8.978 3.243-1.898 4.1 6.213 4.431-2.718-3.745-7.931-14.885-10.953-21.829-2.84-4.445 3.007-11.19 5.93-.038 8.656-7.948 11.825-14.709-.264-5.128 5.975 10.217 14.74z"/>
        <path fill="#EAEAEB" d="M266.198 213.734l.086-.012.09.017 9.012 1.607.227.044.127.193 3.432 5.218.098.15-.011.179-.42 6.348-.012.19-.13.139-3.26 3.53.087 7.067.004.054-.01.047-1.138 6.139-.038.212-.18.125-4.724 3.366-1.443 3.406 1.643 3.8 2.374.626.507-4.991.04-.374.366-.092 3.113-.792.406-.101.197.37 1.754 3.32 1.529.413.638-4.283.064-.432.439-.027 3.82-.22.437-.021.11.423 1.98 7.578 4.536 1.019.202.046.119.167 6.84 9.66 1.188-2.921-.381-8.991-.006-.15.077-.135 3.5-6.23.036-.063.054-.052 12.253-12.264.222-.226.3.083 6.82 1.893.232.062.106.219 2.024 4.075.082.162-.037.178-1.346 6.856-.036.179-.131.12-5.251 4.703-8.952 9.366-2.625 8.182 5.72.149.545.01-.021.544-.28 7.457 4.589 1.723 3.469-3.538.166-.171.237.009 4.2.158 1.983-7.71.037-.148.11-.106 8.226-7.962-1.808-3.287-.004-.007-2.336-4.372-.102-.198.066-.213 2.024-6.35.046-.136.099-.097 8.012-7.433.838-4.078.12-.58.565.174 5.259 1.618 3.249.777 4.237-4.26.072-.072.099-.041.654-.28-.524-4.754 1.017-4.001-3.555-5.33 3.7-6.211 11.16-12.856 9.047-2.548 5.522-8.741 2.436-12.882-1.962-3.653-8.958-4.906-.36-.2.097-.397 2.062-8.614-9.916-14.312-12.867 14.995-6.33-.527-8.278 5.174-5.751-.506-2.524 5.677-2.775 4.8-4.743 3.289 2.408 4.998-3.288 3.049-10.602-2.13-3.26 9.979-2.592 15.2-6.44 2.358-28.102-4.81-12.768-.006.075 8.24zM375.63 215.585l-.728-3.547-2.226-1.808-1.881 2.371-.378 2.357 2.13 2.524z"/>
        <path fill="#EAEAEB" d="M438.87 257.332l5.81-.935-6.698-13.816-11.014 1.315-10.814-4.157-13.622 1.51-8.197 18.452-5.361-3.376-7.097-18.453 1.687-14.08-12.738.968-3.914 11.973 5.226 6.837-5.448 6.72-8.182-4.926-1.077-9.782-.259.109-4.379 4.4-.213.218-.293-.072-3.54-.845-.03-.01-4.73-1.456-.756 3.673-.032.17-.125.117-8.037 7.455-1.91 5.996 2.227 4.173 2.004 3.638.194.358-.294.284-8.41 8.143-2.052 7.983-.108.422-.434-.017-4.396-.165-3.546 3.615-.023.026-7.668 8.124-1.756 10.24 17.91 21.88 6.143 6.257 6.569 4.5.067.047.045.063 6.677 8.282 11.158.77.353.025.12.333 4.003 11.4 3.467-1.42.193-.078.196.076 6.339 2.379.519.196-.213.513-2.169 5.178 5.874 3.218.292.158-.013.332-.231 6.146 6.191-.74.304-.035.185.244 4.762 6.245.103.136.011.164.351 7.213 5.069-3.81.251-.191.291.132 7.444 3.374 5.778-4.085.63-7.577.023-.245.195-.143 17.639-12.99-3.914-8.625-6.989 2.044-3.621 4.03-.266.295-.357-.166-8.422-3.887-.348-.16.041-.38.569-5.69.016-.158.105-.128 7.105-8.658.164-.194.25-.003 8.008-.033-.166-3.614-2.276-4.261-.197-.367.303-.28 5.433-5.041 1.998-7.771-5.579-10.02-.165-.3.195-.276 3.014-4.17.339-.465.44.366 21.117 17.572.149.127.035.19 1.104 6.028 8.123-.032.164-.002.141.096 8.43 5.853 6.275-3.327-1.424-7.162-.038-.2.105-.175 2.51-4.268-3.531-5.935-.197-.326.244-.29 11.336-13.544-4.041-6.41-8.275-1.354-.245-.042-.128-.208-8.748-14.252-.053-.09-.017-.111-2.51-16.864-8.972 7.509zM362.588 509.988l-.043.217-.184.123-4.02 2.712 1.29 1.644 3.102.583 4.975.187 5.226-4.386.6-11.536.03-.57.559.065 4.607.49 5.003-5.104 3.286-7.696.04-.098.074-.07 4.826-4.8 5.886-13.621-2.633-2.21-.034-.033-.037-.043-3.03-3.762-4.265.63-.267.04-.192-.196-5.377-5.456-8.672-.633-.26 2.996-.001.043-.662 4.185-.034.208-.17.132-6.418 4.98-.27.208-.304-.16-4.864-2.494-3.832-.441-4.45 14.06-.105.33-.347.038-8.49.985-4.314 9.89.9 3.253 3.16 5.584 7.936 1.9 7.377-3.671.305-.15.269.214 1.96 1.59.366.292-.242.402-2.407 3.945.313 1.795 3.806.6.55.09-.105.543z"/>
        <path fill="#EAEAEB" d="M337.825 487.83l.538 1.954 3.908-8.964.126-.286.308-.034 8.45-.974 4.481-14.152.134-.423.434.054 4.365.498.09.01.094.047 4.652 2.392 5.98-4.644.627-3.963.3-3.498.043-.525.53.037 9.408.69.2.012.14.144 5.325 5.404 4.306-.632.3-.045.191.242 3.182 3.946 2.52 2.118 4.616-4.812 3.622-4.542-3.792-3.575-.175-.17.01-.241.211-5.634.014-.354.333-.128 15.166-5.722-.2-8.06-8.465-12.117-7.216 2.976-.21.085-.207-.087-19.893-8.541-7.1 7.38-.352.368-.385-.334-3.112-2.684-.196-.173.01-.255.454-12.09-1.52-4.02-.118-.316.236-.246 16.845-17.47-.38-7.832-4.477-5.87-6.393.767-9.4 5.652-.147.09-.172-.014-8.16-.647-1.259 2.829 5.59 5.67.382.389-.396.378-7.397 7.086-.009.012-3.659 3.702-.745 11.097-.033.534-.528-.032-17.392-.982-7.164 6.766 4.173 4.579.015.01.026.04 4.592 6.464.248.349-.288.32-2.81 3.094-.09.09-.11.046-5.814 2.31-.286.113-.243-.188-7.266-5.683-6.6 8.55 1.181 6.362 3.176 2.778 15.071 3.235.182.039.118.146 5.8 6.953.058.069.031.087 1.837 4.958.034.088v.099l-.036 9.936-.003.242-.007.006zM692.34 807.294l-5.467-2.999-.555-.301.389-.503 4.069-5.168.104-.132.168-.048 8.808-2.57.106-.034.112.017 10.272 1.322 5.86-8.112.686-5.638.12-.995.759.647 6.377 5.409 6.647-1.073.827-9.707.024-.279.243-.14 5.255-3.076 2.083-7.182-3.984-4.774-.3-.358.318-.342 5.157-5.659-6.121-4.727-.136-.103-.05-.162-2.126-6.75-6.887-7.916-.115-.135-.016-.175-.63-7.227-5.021.45-6.693 5.641-.182.15-.234-.034-12.338-1.644-3.838 2.731-.341.243-.317-.267-3.714-3.15-11.151 10.057-.387.35-.357-.379-8.088-8.408-.117-.116-.027-.15-1.244-6.245-6.544-9.45-28.78 8.7-.198.061-.184-.087-5.928-2.813-2.826 1.823-.3.196-.291-.198-4.418-2.998-5.98 3.216 11.412 67.35 7.535-.871 5.472-7.297 4.823 2.2 1.15 7.837 15.524 9.246 12.568-4.149 6.52 3.133 4.376 9.972 9.176-.71zM538.893 645.923l1.938-4.635.052-.12.091-.079 9.803-8.523 1.72-6.68.035-.137.097-.102 5.94-6.08.21-.22.293.072 7.085 1.694 1.962-2.839 1.336-5.104-1.764-5.393-5.98-2.542-.248-.109-.063-.264-.778-3.333-.063-.268.187-.21 3.024-3.366 1.216-8.797.029-.192.144-.129 10.566-9.508.392-.36.36.387 5.48 5.914.308.326-.273.364-3.284 4.296 3.949.896.114.021.094.074 10.043 7.76 7.924-.876.18-.018.157.1 7.227 4.408 7.18.561 9.978-6.308-16.897-13.696-.1-.083-.053-.108-7.774-16.805-.01-.026-5.67-14.08-4.792-1.322-.033-.008-.047-.02-10.034-4.58-.092-.04-.07-.073-4.93-5.035-1.666 3.986-.15.355-.384-.027-8.126-.598-2.016 2.136-.067.072-.089.045-5.198 2.506-.177.08-.188-.044-3.92-.998-2.577 1.854-.149.106-.185-.007-5.096-.192-.107-.004-.105-.047-6.33-3.045-2.968 5.156-.126.223-.256.04-9.19 1.444-6.253 9.92-.168.272-.324-.025L503 562.792l-4.782 9.203-.073 9.147-.002.414-.413.103-4.365 1.041-1.758 7.181 3.375 8.697.01.031.012.05 1.296 5.706 6.764 2.347.115.043.082.083 6.125 5.981.161.162v.224l-.034 5.915 9.028 8.513.152.142.014.211.392 5.37.004.038v.01l8.096.156 6.204 11.492 5.32 1.046z"/>
        <path fill="#EAEAEB" d="M508.606 619.739l-.167-.16.001-.231.032-5.923-5.874-5.734-6.93-2.41-.283-.1-.067-.286-1.353-5.957-3.42-8.822-.064-.158.041-.167 1.775-7.255-7.569-3.953-5.812 2.637-.396.178-.26-.357-4.43-6.185-9.85-3.836-11.485 3.047.483 3.216.007.05-.005.063-.582 10.286-.015.266-.217.147-15.877 10.96-.572 5.55 11.34 7.395.438.288-.274.443-4.776 7.815 16.094 4.373 9.004 6.114 5.64-4.117 7.907 4.627 26.9 6.208 10.016-4.126.02-.228-.377-5.126zM617.139 647.48l-.088-.395.36-.191 7.079-3.782 1.096-29.16-4.755-5.426-.31-.359.314-.35 5.491-6.229-.316-4.004-10.014 6.331-.15.093-.173-.012-7.489-.586-.13-.009-.108-.067-7.178-4.381-7.962.875-.213.022-.173-.131-10.115-7.82-4.648-1.051-.815-.183.508-.666 3.512-4.599-4.817-5.193-10.027 9.025-1.207 8.767-.024.161-.111.119-2.946 3.281.653 2.793 5.952 2.528.228.095.073.233 1.888 5.779.045.144-.04.154-1.401 5.35-.022.092-.057.078-2.221 3.22-.208.304-.357-.087-7.147-1.709-5.616 5.755-1.722 6.705-.042.161-.125.113-9.841 8.553-1.913 4.573 4.125 1.366.005 7.502-2.702 2.788 1.534 5.255-6.013 6.412.97 4.943 12.287 3.344.326 6.65 6.042.519 4.565 1.327 4.417 5.357-6.836 5.228-.172 4.615 6.705-1.768 5.645 3.387 5.23-.959 4.466-3.583 12.501-1.791 5.32-11.413-.108-20.909-.004-.149.08-.127 4.477-7.34.101-.158.174-.066 7.306-2.728.12-.045.122.018 8.235.855zM1710.636 356.05l4.322 4.654 9.012-6.846-3.78-1.043zM1666.513 547.262l4.24 2.967 2.304-5.25-2.235-4.014-4.883 2.902zM1681.944 536.19l-2.028 1.751-.822 3.197 4.695 1.996 2.63-2.708zM1676.707 544.838l-1.617 13.271 4.932 6.924 4.846-2.065-.483-13.21-3.651-3.647zM1691.434 578.794l-8.41-4.11-.885 4.88 2.061 4.99 6.27-2.572zM1689.494 613.941l-2.46 4.311 3.255 5.101 4.361-3.852-2.493-5.081zM1691.1 642.55l3.293-1.024 1-6.1-4.176-1.113-2.267 4.324zM1691.441 648.692l-3.577 3.504 2.404 7.376 8.116-1.807-2.398-7.561zM1684.947 678.722l-4.164 3.868-.13 8.423-.138 8.812.041 4.027 4.211.158 3.816-9.824-.397-9.784zM1676.99 717.126l-1.132-5.595-4.197-.35.218 4.412-2.963 2.379-5.368 5.164-.103 12.84 1.143 10.388 1.88 1.028.985-5.91 1.442-7.8.623-6.297 4.234-5.587zM1653.76 756.52l-2.387 1.742 1.825 6.64-1.064 8.448 1.773 5.724 2.112-.838 1.387-14.92 2.685-2.894.643-3.887-2.67-1.846zM1672.853 758.735l-2.402 2.157-.227 3.736 1.29 3.29 4.281-1.335-.744-4.518zM1605.47 322.231l-3.745 9.965 12.248 14.831 2.567-20.563-6.834-3.4zM1697.19 361.383l-8.82 1.69 3.167 5.284 12.707 2.5 5.26-2.498-2.937-5.5zM1487.284 759.113l6.282 7.34 10.4 1.27.567.062-.1.56-2.98 16.165-.08.445-.448-.005-7.415.003.735 10.403.018.325-.273.17-10.91 6.693-.12.071-.142.008-17.53.507-4.603 5.584 3.143 6.918.287.626-.674.124-8.93 1.621-2.368 33.601 5.663 10.601-23.712 1.135-8.42 16.712 21.058 23.303.262 8.382 12.54-11.073 20.74 1.065 15.441-11.543 9.61-17.532 6.163-48.839 7.018-25.422-2.899-30.168-5.858-1.902-.32-.098-.048-.326-1.17-7.234-9.584-7.409zM1445.22 780.988l2.422-8.404-22.112 6.548-.284.087-.215-.193-7.312-6.375-16.436-.91-8.376 7.376-11.04 15.508 8.108 13.947 8.918 8.416 19.954-8.771 2.895-7.978 15.32-15.874zM1379.896 760.79l-15.479-8.473-.292-.167.012-.33.373-9.926.007-.182.11-.138 5.997-7.4-3.539-4.784-.26-.358.297-.325 9.23-9.98 1.776-8.242.04-.161.107-.108 5.944-5.98-3.51-8.256-.284-.656.71-.086 15.312-1.884 3.76-3.484-5.09-17.96-5.709-1.1-3.014 5.499-.16.297-.336-.012-9.003-.338-2.195 7.955-.043.16-.127.106-12.845 10.957-.147.117-.186.007-7.97.203-.304.008-.165-.267-6.408-10.444-15.107-.568-.509-.02-.01-.51-.179-8.458-.007-.337.293-.148 6.797-3.552-.62-9.123-.008-.15.067-.127 9.503-18.713-5.216-6.096-37.254 17.628.72 5.609.06.439-.422.137-8.056 2.679-.15.05-.149-.037-6.73-1.706-24.078 9.957-.317.133-.246-.228-5.544-4.985-17.33 5.709-.29.094-.222-.194-8.548-7.178-13.477-.985-6.017 5.576-.373.35-.364-.367-5.89-5.853-4.244 3.492-.352.29-.342-.304-7.468-6.54-9.73 3.47-9.559 5.76 11.495 8.3.446.326-.33.44-3.704 4.787 5.235 5.643 10.047-5.1.475-.242.25.476 4.394 8.512 7.614-1.51.612-.125.026.634.553 14.862 7.524 4.687.498.31-.352.472-4.553 5.959 11.557 18.828 20.02-9.36 14.795 5.749 18.264-2.194 25.534 27.222 31.578 35.244 13.167-4.696 7.927 4.048 5.875-2.67 10.822 3.874 5.96-.551 10.988-15.437zM1572.139 730.561l-9.636-4.689-10.932-8.498-6.514-18.714-3.593-11.972 8.829-4.574 16.175-.254-35.394-25.867-24.784-24.022-10.986-22.64-15.72-11.842-7.134-9.796-5.27 2.113-1.36 5.433 9.258 6.986 4.899 7.978-3.026 3.636-4.57-1.327-1.687 6.577 8.96 7.26 8.438 21.391 16.656 9.865 4.937 14.612 7.958 10.98 9.476 16.521 6.764 12.085 8.12 6.658 2.312 7.59 2.056 6.716 10.191 5.29 1.056 10.428 10.15 13.951 1.313-11.786-1.11-8.992 8.381-.262 3.224-1.319 7.63 4.33-5.838-13.498zM1038.804 847.11l.215-.101 7.456-3.552-7.52-8.854-.367-.434.453-.337 7.879-5.902-2.575-8.83-.208-.716.744.029 14.542.546 9.192-7.093.19-.143.23.039 7.959 1.392 15.669-19.214.15-.187.242-.01 9.578-.372 3.055-4.573.097-.141.17-.061 8.306-3.042 6.522-7.462 1.022-8.184-6.372-4.606-.232-.17.01-.285.299-7.93.01-.268.218-.154 14.653-10.334 5.277-11.025.1-.213.222-.066 12.625-3.93-.333-9.985-7.4-7.214-8.476-1.804-.316-.068-.094-.312-6.326-21.67-4.281-4.23-.335-.33.286-.373 4.652-6.098-.384-6.156-5.45 5.689-.206.21-.284-.054-4.408-.851-2.891 9.637-.085.302-.306.068-24.043 5.525-.358.086-.205-.306-3.791-5.595-5.394-.203-.13-.005-.122-.073-5.044-2.941-3.046 6.537-.102.22-.231.065-11.478 3.352-.176.054-.171-.066-5.771-2.287-1.631 6.528-.094.376-.381.029-11.582 1.012.792 5.71 6.803 6.18.396.364-.362.396-6.2 6.829-1.504 10.613 3.487 9.148.682-1.775 2.895-14.58.017-.091.052-.085 4.08-6.622.193-.304.346.049 4.982.779.4.066.047.405.678 5.627.01.093-.017.079-2.84 13.09.392 12.87 1.777 7.079.049.175-.072.166-2.903 6.67-.05.11-.095.084-4.198 3.612-1.41 2.327 1.24 4.542.05.182-.082.178-1.935 4.347-.108.25-.268.06-4.364.916-.456 4.895-.018.129-.073.116-5.937 8.914-.112.168-.194.055-8.464 2.278-5.771 7.304-.188.24-.296-.036-6.263-.788-2.031 9.464-.036.148-.104.108-4.906 5.125-.086.083-.106.039-15.326 6.105-2.246 6.749-.092.264-.27.082-9.834 2.872-.558.158-.115-.561-1.18-5.61-10.183-2.381-.387-.09-.028-.393-.588-7.536-6.76-9.358-9.45-.356-.185-.007-.145-.124-19.13-16.337-.06-.052-.036-.058-5.847-8.628-10.137 6.674-.146.1-.176-.013-5.637-.341.238 1.257.058.287-.215.203-3.14 2.914.938 4.45.059.276-.194.204-4.352 4.574 3.467 7.377 24.063 10.767 22.289 6.037 3.937 18.045 16.1 9.262 11.542.142 16.802-9.181 12.529 4.513 13.285-.368 3.234 6.18 7.615.617 2.847-9.152z"/>
        <path fill="#EAEAEB" d="M899.741 802.891l.251-.263 4.411-4.634-.943-4.477-.063-.3.222-.202 3.143-2.92-.597-3.115-8.694.233-.184.006-.15-.118-21.14-15.953-1.527 5.934-.099.387-.394.018-26.489 1.333-1.935 6.912-.085.314-.314.071-5.196 1.156.355 4.86.025.328-.287.171-7.298 4.295-.456 4.723-.037.395-.396.078-4.925.964-9.003 6.946-.186.148-.233-.039-20.206-3.41-.133-.026-.102-.077-12.14-9.252-5.724-.655-4.087 9.635-.137.317-.347.013-14.464.387.531 10.001 8.067 15.683.224.44-.414.261-6.162 3.937 1.027 9.51 37.615-12.554 13.29-.364 2.175 3.541 19.725 5.071 1.107 8.99 7.353 4.027 20.952 3.098 8.316 1.468 4.17 4.2 6.718-2.059 6.247-4.963 4.723-10.498-6.877-8.916 1.36-13.227 4.667-1.27.516-6.043 6.064-.057 1.937-6.436-3.612-7.687zM738.117 774.418l-.062.203-.182.109-5.207 3.048-.77 9.043 11.72.794.232.016.15.18 3.74 4.6 6.477-2.05 4.798-2.173 8.215-7.621-1.629-5.06-.049-.157.045-.161 1.627-5.616-1.612-7.668-.056-.26.168-.2 5.515-6.493 3.007-8.004-7.617-3.02-.253-.096-.069-.264-1.269-4.89-.067-.264.171-.21 6.396-7.741-2.967-8.054-.058-.164.043-.16 1.686-6.227.068-.252.242-.103 8.266-3.521 4.163-3.855-7.894-16.885-.084-.176.048-.186 1.447-5.702-9.343 3.594-.217.084-.21-.1-11.744-5.701-13.728 1.37-5.414 5.928-.167.185-.25-.01-14.048-.596-1.713 37.817 5.12-.466.535-.047.046.54.661 7.59 6.843 7.872.074.089.033.1 2.111 6.7 6.45 4.98.46.36-.392.428-5.236 5.739 3.868 4.635.182.217-.079.277z"/>
        <path fill="#EAEAEB" d="M761.282 836.85l.283-.182 6.031-3.848-7.892-15.356-.052-.1-.007-.118-.518-9.696-7.654 5.413-.439.306-.308-.433-6.439-8.949-.148-.21.066-.24 2.75-10.294-3.642-4.477-11.51-.774-.01.155-.413.065-7.305 1.178-.243.04-.19-.162-5.805-4.925-.58 4.792-.018.134-.078.117-6.127 8.476-.187.261-.318-.045-10.485-1.349-8.53 2.492-3.57 4.542 5.133 2.815.225.12.046.244 1.213 6.336.113.587-.6.054-9.593.738.637 9.953 9.025 5.54-.079 9.808 9.15 2.361 3.571 4.755 10.585-5.087 1.743 7.282 6.26 10.047 10.337 1.544 3.427-6.8 13.86-.058 9.43-6.476-1.11-10.247zM705.447 690.73l2.412 3.388 6.981-5.382.158-.124.19.008 5.695.214.54.02-.002.006 13.797.586 5.381-5.897.14-.156.204-.017 14.086-1.409.15-.01.136.066 11.672 5.667 9.778-3.768.837-9.794.023-.248.2-.14 10.293-7.254 1.44-4.59-8.587-3.067-.123-.048-.09-.097-6.046-6.517-.127-.137-.015-.186-.657-8.254-.02-.279.221-.18 11.303-9.107.635-5.534-7.187-1.177-.287-.048-.12-.265-7.464-16.968-27.586-5.348-.455-.083.017-.46.291-7.732.007-.188.126-.144 3.866-4.474-3.345-13.73-7.594-5.877-15.934 8.37-.308.162-.273-.216-12.749-10.105-18.65-.993-.163-.012-.125-.087-11.99-8.665-8.684-2.878-8.416 5.898-6.866 19.33-.15.423-.437-.072-7.136-1.132-5.664 3.39-1.357 5.91-.057.246-.22.117-10.102 5.29.378 4.764.017.224-.153.174-5.332 6.036 4.585 5.234.138.161-.008.216-.629 16.743 36.212 18.93.114.06.073.11 6.56 9.25.06.088.027.101 1.708 7.462 10.684.114.328.006.145.293 3.491 7.067 20.953 1.377.553.034-.053.55z"/>
        <path fill="#EAEAEB" d="M751.287 811.775l8.017-5.665.794-.562.024.451 14.147-.375 4.114-9.691.156-.365.397.045 5.896.675 4.526-8.686.101-.194.207-.069 7.63-2.537 2.461-4.925.214-5.68.011-.324.293-.138 7.075-3.441-.231-5.889-2.551-8.742-.012-.051-.006-.024-1.125-8.166-5.864-9.8-.152-.255.133-.263 2.925-5.759-4.642-3.204-8.067.641-.035.005-.024-.001-8.696-.327-.384-.014-.111-.372-3.912-13.127-3.389 1.445-1.569 5.81 3.013 8.179.104.291-.196.234-6.415 7.77 1.131 4.36 7.85 3.106.491.194-.184.489-3.23 8.592-.029.091-.059.068-5.4 6.367 1.589 7.542.028.131-.038.13-1.624 5.591 1.681 5.23.11.326-.253.232-8.523 7.903-.058.061-.083.033-4.926 2.237-.041.017-.019.004-6.574 2.078-2.674 10.009zM993.45 778.393l-4.586 1.522-.314.101-.309.107-.233-.233-.234-.226-3.405-3.37h-.007l-.042-.046-.04-.038-.032-.05-.028-.044-3.636-5.523-11.775 6.42-.506.28-.507.272-.236-.524-.242-.525-4.225-9.31-5.31 1.761 1.812 7.371.13.51.122.506-.507.137-.502.14-4.74 1.302.677 4.472 6.232.756.148.016.15.02.12.096.115.091 6.29 4.944 5.111 3.502 9.085-.509.198-.01.202-.012.155.125.158.115 6.925 5.273 12.42-14.643-2.644-4.55zM1155.165 824.477l-.72.32-31.93 13.93-.272.118-.27.122-.242-.165-.242-.164-17.71-12.017-.367-.25-.37-.25.177-.412.176-.403 2.898-6.702.13-.293.13-.3.322-.026.318-.025 14.978-1.26 4.613-8.753.335-.64.335-.64.514.51.514.51 3.3 3.255 3.877-8.289.12-.26.122-.258.283-.046.28-.045 7.61-1.23v.007l.206-.035.213-.036.175.12.175.123v-.007l8.854 6.01.31.21.304.204-.083.357-.083.357-1.361 6.004-.076.338-.08.345-.346.07-.337.067-4.492.874 7.313 7.23h.005l.556.554.563.557-.725.314zm70.815-86.449l-11.721-19.103-.194-.31.223-.29 4.415-5.784-7.263-4.52-.236-.154-.016-.285-.54-14.52-7.39 1.466-.394.078-.185-.36-4.335-8.405-9.946 5.047-.361.181-.273-.298-5.814-6.267-.311-.333.275-.363 3.643-4.707-11.706-8.457-.11-.073-.057-.126-14.268-28.999-12.355-.097-4.676 3.326.233 13.09 8.613 6.607.232.176-.018.284-.805 11.323-.021.266-.224.148-8.915 5.72-.185.111-.203-.04-14.328-2.754-4.286 5.613 4.04 3.991.097.097.04.138 6.283 21.492 8.317 1.772.147.033.116.11 7.668 7.472.149.154.012.212.359 10.607.008.411-.39.122-12.794 3.978-5.235 10.94-.061.126-.11.083-14.55 10.26-.277 7.386 6.397 4.617.254.185-.037.316-1.084 8.666-.02.158-.108.128-6.723 7.69-.083.102-.134.045-8.275 3.03-3.111 4.653-.151.23-.275.01-9.608.376-15.71 19.27-.201.24-.31-.055-8.038-1.4-9.158 7.064-.16.125-.192-.007-13.986-.525 2.472 8.463.103.357-.293.22-7.725 5.782 7.605 8.95.447.526-.627.306-7.878 3.753-2.707 8.7 4.819.384 4.552 9.411 37.625 4.874 25.937-14.32 8.086.017 2.906-8.26 12.823-11.065 17.33-.217 4.999 5.094 7.456-6.36 30.37 6.054 4.765-11.656 10.648-6.817-3.923-10.823 5.697-28.65 8.075-7.493-4.67-14.03-10.91-1.564 8.328-14.118 14.086-9.01z"/>
        <path fill="#EAEAEB" d="M1145.256 815.163l1-.2 5.48-1.072 1.362-6.004-8.852-6.01-7.61 1.23-4.207 8.976-.324.689-.54-.534-3.836-3.79-4.75 9.013-.14.263-.293.025-15.27 1.283-2.897 6.698 17.707 12.017 31.93-13.935-8.035-7.94zM1372.044 178.366l-1.26-5.147-4.886.785-1.613 4.07 3.55 2.56zM1014.793 271.094l6.45 5.528 3.232-4.7 1.168-3.942-3.61-2.452-4.411-.817zM1009.357 280.257l-4.614-.359-2.736 3.883-.738 2.478 2.021 2.762 7.562-4.259zM1169.547 228.797l4.973 3.346 4.41-1.048-.274-5.599-11.102-1.872zM1197.592 206.294l1.604 9.046 4.608.173 1.268-7.965-4.461-4.055zM1229.482 217.209l-3.324-8.385-7.004-1.235-5.287-1.412-4.1 5.677-2.275 2.34-.383 10.187 11.49-1.995zM1238.204 166.048l6.745-11.405-3.788-9.128-4.797 4.923-8.947-1.067-2.579 4.031-4.849-.183-.909 4.824-5.813-.46 3.125 7.403zM1210.686 122.754l-4.545-1.87-1.65 5.28 4.33 1.135zM1165.286 193.422l1.453 6.612 9.358 3.023 8.757-.399-.378-9.243 6.28.964 5.15-7.82 5.771 1.43 4.047-4.218-3.738-4.028-8.391-2.742-6.49-8.259 5.629-1.246 4.806 7.951 9.385 2.297.651-10.906-2.956-5.453-11.127-1.145-5.973 3.903-8.918-1.793-.955 6.037 5.123 5.778-3.034 3.287-8.227-7.353-10.225.588-1.035 8.218.654 8.524zM1156.059 199.875l3.694-1.315-4.065-8.17-6.404-4.126 1.212 6.602zM1017.277 288.307l-8.144 3.693-.648 5.476 3.548 5.117.07.105.021.121 1.36 8.943 11.695 17.935.094.144-.006.166-.428 11.377 6.017 7.797.338.434-.44.326-14.825 10.887-1.08 6.605-.023.126-.073.103-3.563 4.932-3.005 12.22-.124.478-.48-.076-7.028-1.096-11.74 8.851-.045.035-.05.025-3.902 1.831 8.517 14.153.07.12.008.133 1.618 38.726.011.225-.162.17-8.274 8.485 5.088 4.232.26.213-.08.327-2.527 10.18 4.455 5.242.13.156-.007.21-.27 7.173 5.334 3.994.332.255-.157.387-2.9 6.913-.035.091-.058.068-8.61 9.656-1.06 7.108 13.437.505.185.007.144.124 5.665 4.802 6.412-3.934.42-.255.296.395 3.346 4.516.265.37-.025.025 4.334 7.136.28.464-.47.28-5.334 3.116-.232 6.165 5.751.663 4.934-3.187.515-.328.258.55 5.531 11.647.062.126-.01.145-.995 13.555 7.497 4.6.346.21-.107.393-3.972 14.09 3.941 9.705 9.59 3.274.563.196-.256.543-8.062 17.023-2.279 21.47 7.156 8.2 8.295-5.862.133-.094h.175l12.13-.028 4.61-7.528.371-.6.483.515 6.296 6.788 8.89-9.608 14.455-28.237.128-.248.28-.039 9-1.153.15-.019.134.062 17.121 7.605.227.102.07.237 3.357 11.498 10.564-4.337.28-.112.247.181 6.288 4.715.12.091.057.141 10.7 26.962 14.14 28.744 9.798-5.899.044-.028.051-.016 10.083-3.602.296-.108.241.207 7.358 6.457 4.263-3.517.378-.308.346.342 5.868 5.841 5.804-5.383.168-.162.235.016 13.885 1.024.178.014.134.11 8.447 7.094 17.34-5.708.298-.095.227.207 5.521 4.965 23.94-9.902.164-.073.171.043 6.742 1.713 7.492-2.489-.712-5.559-.054-.386.354-.168 18.564-8.785-4.07-13.007-.1-.309.233-.229 6.361-6.325-2.294-6.42-11.359-8.053-.394-.28.241-.422 6.57-11.594-11.102-8.317-.476-.36.407-.433 5.542-6.002.98-26.095.014-.365.353-.123 22.67-7.65 1.253-10.064.061-.456.458-.015 13.286-.382 3.322-8.074-.127-8.517-.005-.36.336-.144 6.5-2.737-4.173-17.24-8.669-6.573-.309-.23.12-.362 6.618-20.468-7.28-21.9-.096-.285.188-.225 4.754-5.726.25-.297.354.14 15.53 5.98 10.122-1.804 3.741-6.01.138-.219.262-.029 11.961-1.316 2.408-7.55-18.25-41.809-.07-.167.038-.172 2.385-9.964.054-.205.177-.12 13.622-8.867-4.642-9.812-.174-.367.308-.266 13.302-11.565.137-.12.18-.01 11.485-.755 6.844-7.095 1.646-12.765-7.178-6.925-.16-.157-.005-.225-.08-8.294-4.478-7.287-.234-.388.347-.298 5.85-5.063-5.825-7.469-.32-.406.391-.33 15.37-13.095.072-.063.093-.03 6.784-2.5 5.228-7.06-8.626-19.842-11.709-.44-.112-.005-.104-.05-9.083-4.362-.2-.098-.073-.212-4.352-12.629-.107-.303.22-.233 19.566-21.232.404-10.779-23.828-19.313-3.153 5.588-16.194 8.34-11.109-11.387-11.487-1.585-16.834 10.048-11.756 13.412-4.57 13.971-7.578 2.023-9.053-4.957-8.964.527-4.84 5.882-3.907-3.613-3.9 3.898-4.443-4.498 6.871-6.38-15.517-1.738-9.227 7.446 4.27 16.902-9.26 8.31.487-12.969-6.053-.228-6.259 5.247-1.188-6.684 9.238-7.733-9.535.22-28.787 13.35 5.226 6.834-8.362 7.478 2.953 5.883 5.877-2.666.261 8.382 6.612 8.331-10.764 2.19-3.33 4.207 2.623 7.024-8.699 1.118-11.4-3.892-3.946 12.837-19.474-4.195-1.083 28.822-13.744-2.823-20.606-20.114 7.988-5.182-12.24-19.8-8.209-4.348-12.844 3.845-13.916-6.006-2.844 21.831-26.06 9.987-9.55-6.999 1.634-5.132-26.215-1.274-7.269 8.963-1.957 5.99-1.389-9-4.743-4.51zM1450.663 51.359l4.03-16.867 4.367-7.778-4.292-6.288-11.339.482-7.167 9.942-.298 7.929 11.88 15.196z"/>
        <path fill="#EAEAEB" d="M1595.787 1.5l-25.037 13.493-1.889 11.762-6.954 8.398 16.184 7.246-9.088 3.7-26.247-8.203-31.609 19.304-47.056 23.344-13.154 19.71.926 6.095-8.447 1.99-12.216 10.221 7.972 10.691 7.577-2.024 11.004 6.766-1.576 11.197-10.416.761-7.074 3.774-14.352-9.774-.704 18.734-15.41 10.68-6.207 10.986 24.18 19.596.21.17-.01.265-.423 11.243-.007.197-.137.147-19.485 21.142 4.176 12.114 8.778 4.214 11.938.45.334.013.137.313 4.33 9.955 7.706 1.456.26.05.115.233 4.643 8.985 10.582-4.61.195-.087.202.073 9.631 3.484 7.648-6.34.143-.122.185-.005 11.471-.36 8.83-8.567-1.234-8.625-.07-.466.46-.126 8.66-2.403 2.637-8.069.113-.344.361-.025 7.316-.493 2.56-6.815.103-.28.293-.057 13.546-2.654 3.731-6.088.152-.248.292-.009 20.125-.45.398-.008.123.381 4.165 12.948 14.131-3.744.083-.022.087.004 15.254.968 13.651-34.906.227-.58.54.308 7.29 4.194 9.621-2.525-1.654-31.313-8.464-5.224 20.998-13.355-2.526-9.62-37.927-4.6-4.836 5.88-10.413.472-1.45 8.03-8.339-.89.422-11.242 9.627-2.815 4.044-7.639-1.253-20.54-3.69-1.58-4.724 2.706-.003-7.504-9.067 3.121-5.79-7.142 2.728-11.155 7.242 6.91 4.451-3.296 6.083 7.156 4.071-8.505-.47-10.41 7.13-5.504 12.062 1.61 20.748-14.518-4.682-5.95 10.036 1.82.083-9.809-11.027 1.606-2.917-7.037-14.589-3.436 6.04-6.987-7.293-5.759 7.103-4.638z"/>
        <path fill="#EAEAEB" d="M1518.56 328.502l6.062-.06 3.208-8.538 11.751 17.474 8.706-1.118.814-6.32-1.533-13.046-1.846-9.216-8.146-5.008-.218-.132-.034-.245-1.277-8.382-5.17-5.18-8.692.46-.405.025-.134-.387-4.648-13.678-7.339-1.834-.21-.053-.116-.18-11.216-17.686-8.706 8.444-.158.147-.203.006-11.49.36-7.743 6.42-.238.197-.289-.106-9.716-3.515-10.84 4.728-.462.198-.23-.447-4.754-9.195-6.735-1.272 4.037 9.291.125.286-.184.247-5.507 7.435-.098.127-.15.055-6.842 2.522-14.908 12.7 5.824 7.466.313.404-.384.332-5.895 5.096 4.315 7.022.077.123v.151l.083 8.226 7.208 6.957.197.183-.033.27-1.708 13.206-.02.178-.12.127-7.117 7.373-.142.15-.205.013-11.512.755-12.858 11.178 4.665 9.867.202.423-.394.257-13.834 9.005-2.29 9.587 18.004 41.257 9.236-5.663.222-.14.244.096 20.147 7.567.294.111.052.305 1.838 11.417.03.192-.099.17-5.182 8.64 3.391 7.474 8.327-5.663.148-.1.173.007 10.426.392.314.012.14.275 4.805 9.18 7.904-4.796 5.352-4.13 7.272-1.459-1.755-14.784 12.835-3.56 10.123-8.279 8.947.046-6.986 9.265 6.14 5.716 9.61-10.031 2.923-16.34 8.473-2.86 6.954-8.397-6.718-5.447-6.335 7.267-6.112-6.293-.614-29.752-4.814-17.786 2.211-12.906z"/>
        <path fill="#EAEAEB" d="M1475.039 641.764l-4.135-5.347 4.034-7.356-9.08-4.092-19.181-4.187-15.282 7.218-6.046 22.578-6.034-8.313-7.553 8.958-5.392-17.81-12.974 7.301-10.602-2.126.955-10.067 15.137-34.066 4.758-34.455 4.66-16.569-2.934-13.964 5.074-12.218-1.518-13.335 30.183-27.44 9.156 2.071.999-3.424-2.441-4.13 4.16-2.527-4.684-8.965-9.942-.373-8.707 5.924-.522.356-.264-.578-3.772-8.317-.122-.255.146-.24 5.228-8.71-1.764-10.923-19.603-7.364-9.37 5.748-2.506 7.887-.113.333-.343.04-12.046 1.321-3.728 5.992-.127.203-.236.038-10.518 1.877-.143.025-.141-.053-15.305-5.895-4.317 5.192 7.249 21.786.054.171-.05.162-6.562 20.276 8.52 6.455.158.12.043.18 4.32 17.872.11.441-.417.177-6.59 2.775.124 8.27.002.113-.04.098-3.498 8.495-.131.324-.35.012-13.172.38-1.244 9.94-.043.333-.321.107-22.637 7.644-.973 25.922-.008.198-.137.145-5.276 5.706 11.005 8.246.38.29-.231.404-6.572 11.585 11.1 7.87.14.097.057.157 2.466 6.906.113.321-.24.24-6.373 6.33 3.93 12.556 18.43-8.72.368-.18.273.312 5.717 6.68.233.271-.168.324-9.597 18.903.63 9.326.019.35-.303.16-6.811 3.558.16 7.62 14.89.56.284.01.153.24 6.404 10.434 7.466-.186 12.568-10.724 2.266-8.21.108-.414.427.015 9.103.343 3.047-5.556.188-.34.38.07 6.42 1.234.326.062.087.327 5.27 18.6.094.313-.244.22-4.12 3.827-.126.111-.176.027-14.78 1.815 3.378 7.936.137.333-.252.26-6.092 6.116-1.776 8.235-.031.142-.097.108-9.03 9.772 3.522 4.76.242.33-.26.32-6.141 7.58-.354 9.428 15.303 8.381.117.067.069.108 11.898 17.855 8.13-7.154.169-.142.218.014 16.832.924.185.014.138.115 7.228 6.303 22.765-6.745.937-.277-.274.941-2.712 9.442 7.206 12.834-3.224 9.121 4.184 13.595 8.178-1.48-2.995-6.596-.138-.309.215-.254 4.96-6.03.157-.192.242-.004 17.63-.51 10.508-6.45-.748-10.653-.041-.574.578-.002 7.539.003 2.793-15.16-10.04-1.222-.204-.026-.136-.154-6.806-7.95-.387-.456.492-.334 12.153-8.425.325-.224.307.24 10.066 7.777.17.13.035.212 1.149 7.118 5.22 1.692 3.903-33.897-3.345-10.802-15.443-34.636-5.225-6.837-4-24.108-3.04-8.082-.37-.994-.752-.34zM749.064 274.051l4 .595.843-2.646-2.567-3.076-3.308.918zM761.076 295.198l4.69 1.965 4.942-.708-1.81-7.363-6.072 3.045z"/>
        <path fill="#EAEAEB" d="M629.555 347.002l2.668 10.125.066.24-.142.202-5.18 7.378-.107.154-.181.053-7.963 2.327-5.472 5.918-.158.17-.233.001-19.866.14-10.411 7.957-.146.113-.19-.005-6.498-.14-1.216 16.843-.011.16-.1.132-8.173 10.636 4.629 10.806 19.06 2.163.159.02.125.103 8.86 7.406.193.163-.001.255-.061 9.202 3.11 3.075 21.843 1.99.242.022.139.197 6.45 8.786.107.142-.002.178.056 13.978 3.54 5.005.11.16-.01.188-.625 9.147 14.46.545.208.006.146.151 12.732 12.5 17.865 8.596.155.075.08.146 6.29 11.325 11.576 7.672 11.99 1.6 10.116-6.867.365-.253.316.315 8.645 8.721 9.214.06.292-.002.154.255 6.538 10.344 3.56.406.2.029.135.147 6.386 6.885 14.38-16.923 1.285-11.212.02-.154.09-.115 9.554-12.204-1.301-10.16-10.066-8.157-.258-.21.068-.32 3.148-14.595-6.531-9.727-.114-.17.029-.204 2.938-20.329-8.217-11.558-.167-.236.098-.264 3.834-10.207-3.122-8.28-.218-.579.6-.137 11.258-2.58 5.167-11.8-1.941-14.219-11.546-3.35-.181-.053-.11-.156-10.178-14.538-.148-.21.073-.247 2.462-8.488.075-.248.246-.099 16.303-6.574 1.85-6.353-6.234-14.65-.068-.153.039-.168 2.064-9.361.088-.37.37-.048 7.058-.906-6.031-14.17-.036-.082-.005-.1-.062-1.14-5.821.124-3.275 10.269-9.184-9.005-2.932 8.837 9.68 11.33.22 9.534-17.832-17.123-.183-10.397 8.135-9.217 1.728-15.233-3.224 1.322-4.138 10.236-5.958 4.971-6.12 1.502-6.088 8.43-.568 22.78-14.958 21.661.358 13.58 14.413.541 11.286 14.567-.51 13.547-8.741 9.774 2.134 4.699 6.49 3.996-12.501 2.416-2.971-13.101 9.827-15.794-3.578-12.257-14.048-2.548-8.066 7.202-1.501 16.971-13.471 12.77-11.98 3.882-8.393 8.344-26.464-17.736.303-8.072 17.843 9.04 9.654-3.386 15.644-9.226 11.156-20.364-1.307-11.303 19.154-41.135 2.284-7.127-1.656-9.589 11.939-10.518 2.88-15.188-8.49-12.154-5.68-2.524-8.896 6.306-10.875 12.868-8.363 7.477-12.214 2.43-6.57 5.813 6.028 8.596-7.381 12.133-9.62 2.526-.451 4.313 8.035 8.962-3.188 7.96 1.25 5.243 2.994 4.73-11.031 9.399-3.253-5.605-2.417-12.504-10.578-18.484-6.647 5.126 3.533 6.875.137.27-.156.257zM731.616 249.07l-9.077-1.017-.977 8.063 1.76 4.979 9.222-.854zM444.242 566.365l2.44-1.38.357-.196.292.296 4.39 4.524.121.13.027.167.463 3.1 11.542-3.063.166-.044.162.063 10.17 3.95.147.057.091.134 4.268 5.954 5.65-2.564.241-.107.231.118 7.99 4.183 4.084-.978.071-8.853.002-.13.061-.11 4.996-9.63.163-.31.354.02 16.273 1.146 6.031-9.567-3.936-6.421-.098-.16.024-.183.77-5.977v-.025l1.991-10.768-10.876-7.59-.143-.098-.059-.164-1.722-4.976-.1-.296.207-.234 6.663-7.462-1.068-6.612v-.005l-1.736-11.796-.034-.226.141-.181 5.622-7.277.064-8.717-5.605-14.957-10.24-6.571-.193-.124-.039-.233-1.334-7.26-2.79-3.064-2.994 4.714-2.192 4.543-.033.062-.036.045-9.72 11.91-.023.029-.033.03-14.403 13.096-.074.066-.085.034-11.886 4.876-.447 5.237 3.477 7.364.154.33-.25.263-5.283 5.677-1.089 7.703-.023.154-.104.12-3.425 3.965-.155.18-.242.004-11.052.11-1.805 6.895-.055.216-.19.112-4.745 2.82-.392.234-.294-.352-4.245-5.085-6.522 9.517-.148.22-.26.014-10.176.686-9.07 9.949 1.361 4.838 3.896 3.364 9.636 4.685 3.17.597 3.4-.724.274-.056.2.186 16.006 14.8z"/>
        <path fill="#EAEAEB" d="M522.845 540.704l-.743 5.748 3.829 6.235 8.824-1.382 3.08-5.361.25-.433.45.215 6.676 3.207 4.806.18 2.628-1.887.204-.147.242.059 3.974 1.012 4.933-2.38 2.122-2.248.174-.185.254.02 8 .588 1.827-4.373.314-.747.565.58 5.423 5.54 9.897 4.514 5.019 1.38.257.073.099.246 5.756 14.302 7.727 16.697 17.102 13.864 9.892-5.18 1.354-5.894.05-.22.198-.125 6.033-3.603.167-.1.189.034 6.886 1.089 6.77-19.065.055-.16.145-.101 8.775-6.152.225-.16.253.086 9.024 2.997.088.02.059.045 11.925 8.615 18.66.999.178.007.134.105 12.603 9.994 15.926-8.362.304-.162.277.209 7.85 6.069 9.184-.797 10.184-3.921 1.986-4.59-11.128-6.97-.264-.165.012-.31.533-14.195-6.512-7.02-3.614-.416-.256-.026-.141-.224-6.52-10.318-9.134-.056-.22-.004-.157-.155-8.488-8.566-9.92 6.739-.165.112-.204-.027-12.318-1.642-.12-.018-.103-.066-11.79-7.815-.115-.072-.06-.114-6.266-11.29-17.795-8.557-.081-.04-.064-.057-12.64-12.417-14.804-.557-.552-.02.038-.552.646-9.516-3.53-4.993-.095-.135-.002-.173-.055-13.973-6.201-8.452-21.791-1.987-.19-.016-.136-.134-3.41-3.372-.162-.161v-.227l.058-9.174-8.54-7.14-19.21-2.181-.31-.038-.121-.285-4.88-11.386-.123-.29.193-.247 8.267-10.76 1.199-16.63-6.253-.135-9.291 7.628-.142.119-.19.003-8.141.122-.314.005-.156-.27-2.5-4.274-13.54 11.175-2.38 7.467-.05.153-.12.1-14.303 11.827-16.157 25.428 3.094 3.392.1.114.029.152 1.314 7.187 10.193 6.539.152.096.062.166 5.704 15.218.03.09.002.104-.067 8.998-.002.178-.11.146-5.595 7.24 1.706 11.562 1.108 6.859.04.256-.172.185-6.625 7.42 1.563 4.513 11.02 7.686.283.198-.06.339z"/>
        <path fill="#EAEAEB" d="M516.429 414.883l.046-.07.064-.055 14.247-11.78 2.38-7.472.049-.15.118-.1 14.15-11.678.487-.4.316.545 2.659 4.546 7.646-.115 9.302-7.63.15-.129.199.005 13.832.301 10.4-7.957.143-.106.18-.002 19.819-.137 5.415-5.855.1-.109.145-.042 7.924-2.315 4.925-7.019-2.667-10.108-.058-.225.119-.194 3.879-6.324-3.781-.835-2.612 3.618-.17.233-.288-.01-4.68-.176-6.288 5.41-.213.187-.28-.076-7.18-1.975-5.81 6.216-.151.163-.221.008-16.508.714-.194.011-.155-.123-69.484-53.683-6.946 1.888-.103.028-.11-.016-30.728-4.474-11.148 13.323 3.495 5.88.162.274-.157.272-2.565 4.363 1.46 7.356.079.39-.356.19-6.918 3.664-.291.153-.265-.186-8.561-5.943-8.401.034-.445.003-.085-.444-1.143-6.275-20.53-17.08-2.473 3.43 5.518 9.91.103.187-.053.203-2.09 8.131-.04.156-.116.11-5.242 4.863 2.136 4.006.06.11.005.12.195 4.288.029.56-.566.001-8.313.033-6.843 8.335-.518 5.153 7.716 3.56 3.457-3.85.104-.114.148-.044 7.58-2.213.447-.129.19.422 4.284 9.443.182.395-.35.26-17.793 13.1-.632 7.585-.02.25-.206.142-6.232 4.408-.251.177-.28-.127-7.43-3.37-5.594 4.202-16.744 17.362 1.438 3.812.04.105-.005.104-.45 11.935 2.53 2.187 7.004-7.285.257-.268.342.148 20.028 8.597 7.208-2.97 4.353-9.705.167-.369.395.053 13.427 1.792.206.025.139.165 9.56 11.635 10.733 6.096 15.279 2.26 6.183-3.114.323-.164.273.243 16.055 14.212 10.135 1.81zM588.299 228.498l.228-6.063-4.344-1.177.305 9.798z"/>
        <path fill="#EAEAEB" d="M463.712 288.013l8.27 1.352.242.04.128.207 4.245 6.737 30.668 4.465 7.094-1.93.253-.07.217.164 69.536 53.725 16.096-.7 5.882-6.29.224-.239.31.086 7.222 1.987 6.226-5.36.162-.139.21.008 4.604.173 2.653-3.668.203-.286.345.075 4.486.991 3.917-6.383-3.6-7.002-.202-.393.35-.275 7.149-5.51-5.111-10.319-13.828-16.106-10.951-.41-1.677 6.284-.646 9.503-7.958 4.317-4.293-1.024-3.041 4.213-5.313-4.528 6.557-5.527.238-6.34-20.453-1.057-9.806-7.874-15.621.856-5.193-7.699 9.258-.518 5.257-9.327-12.287-3.35-6.024 6.703-2.687-5.297-31.411-8.974-4.188 3.885-4.45-4.499-17.084 9.173-8.335-8.686 2.878-7.393-2.315-7.593 10.507-3.07 9.264 6.987 4.892-7.318.22-13.559-12.161-14.31-4.255 13.405-17.718 10.59-1.763 8.592-8.544 7.152 2.593 17.406z"/>
        <path fill="#EAEAEB" d="M605.233 280.764l4.733 8.614 6.43-.433.665-8.749-2.029-8.85-8.162 1.72zM535.329 252.976l1.511-4.299-.482-6.552-5.948-6.965-9.005 2.773-2.46 7.582 4.717 6.714zM591.89 231.67l-6.293 5.839 4.323 10.622 5.368.877.16 4.73 6.014 1.577 3.967 2.171 3.66-25.505 2.388-9.697 8.765-8.781 10.24-2.99 4.257-5.578-2.094-7.166 7.236 5 6.764-.423 1.879-4.99 4.365.5.524-5.041 5.318 2.225 1.202-5.016 3.879 4.53 3.184-3.929 1.239-6.03 5.578 4.262 3.832-3.23 7.688 1.975 6.682-7.17 49.234.836 12.035-5.958 1.676-8.712-4.826-6.254-11.908 2.588-2.188 4.304-20.154-2.444-8.48-7.743-7.917 4.09-7.625-3.66-10.01 6.034-8.09-.304-4.166 3.216-5.18-5.93-3.14 11.695-6.077.108-.851 4.69-15.338 4.15-5.305-2.56-3.522 3.913 4.217 4.546-6.283 5.502-9.621-4.41-1.626 7.363-7.063-.602-.552 5.715-9.962 4.687-5.99-2.251-6.93 4.8-.613 7.401 6.16 6.644zM747.243 71.593l3.453 3.49 5.08-4.063-2.323-3.67-3.613.761zM754.963 74.798l2.599 2.335 4.79-2.28 1.552-5.544-3.547-1.028zM768.101 70.812l-.367 3.793 4.537 4.427 9.567-4.346-1.586-5.433-6.385-2.925zM784.927 64.054l-3.237-3.259-3.516 4.124 3.95 2.163zM801.532 57.288l-1.375-5.202-3.895 2.317 1.185 4.299zM785.402 45.485l2.988-2.127-4.096-4.185-2.3 1.706 1.245 2.51zM775.972 52.073l2.832-3.926-2.272-5.011-5.466 2.482.541 3.38zM769.056 63.232l1.364-6.44-8.214-7.925-6.883 4.447 5.344 6.691zM784.997 74.135l.932 4.96 9.4.132 4.038-6.119-2.937-5.264-4.245 5.665-5.98-1.79zM758.858 84.35l2.325 3.67 2.348-2.823-2.096-3.884zM736.524 58.876l3.558 6.627 4.633-4.08-2.038-5.452zM747.557 57.276l.754 3.833 2.524-1.695-1.851-4.324zM749.872 37.432l-4.321-4.194-1.22 2.642 2.758 4.133zM723.295 35.535l5.83-.226 3.47 3.04 2.335-2.6-4.322-4.193-4.071 1.078-8.291-5.797 1.138 5.418zM728.225 41.32l-3.178 1.225-6.199-2.025-.62 4.68 4.089 4.407 4.048 5.529 1.43-2.412-.923-5.184 5.868-1.123 7.285 2.737 4.875-4.52-4.067-5.081-3.527-1.475-3.91 2.764zM726.344 61.627l3.279 2.14.384-4.24-2.651-.996zM785.617 291.953l-.709-8.962-3.353-1.912-4.082 5.653 4.667 6.578zM792.679 246.656l2.404 3.368 2.78-2.724-1.018-4.506-3.46.913zM901.079 86.816l-7.557-.107-.942 5.905 10.714 2.383zM900.806 113.266l-.176 4.671 7.293 7.115 14.99-6.097.21-5.57 6.053-3.013-1.989-4.577-3.212-10.38-6.255-5.996-5.966 5.536-5.895 3.558 1.175 7.066zM899.102 134.624l5.32-2.681 1.823-5.332-11.164-4.741-4.404 2.176 1.07 5.08zM924.07 121.699l-14.099 6.31-5.5 12.217-.329 3.946 5.126 2.533 8.872 8.254 9.983 7.397 5.134-2.508 1.34-6.97-3.777-4.824 4.956-7.373.844-8.068-6.063-6.348-.694 4.114-3.636.945zM933.965 184.173l10.368-7.708 10.632-.32 5.78-5.364 1.207-12.915-5.647-7.774-5.223 4.846-2.59-2.979.654-7.717-8.806 4.351-1.865 16.132-6.531 10.914zM977.701 179.52l-.245-3.07-7.732-5.15-.606 1.78.736 4.345zM915.01 204.706l-1.987-4.575-5.158 3.045 4.022 3.214zM876.703 198.945l.516-4.12-3.266-4.083-2.597 2.06.243 3.073zM903.127 214.338l1.896 2.233 2.605-2.245-2.76-3.16zM813.27 265.296l3.874 3.868 2.777-2.572-.885-4.207-3.386-1.019zM822.756 270.418l2.168 1.72 1.59-2.768-2.422-2.92zM832.57 258.875l-3.337-2.356-.27 3.264 2.172 1.57zM835.654 256.014l2.508-3.33-3.76-2.97-2.138 1.408.936 2.865zM818.733 234.832l4.257-2.373-2.223-4.251-3.529-1.174-3.53 2.844 2.268 2.914zM829.153 218.992l-3.706-.436-1.135 2.489 2.113 3.206 2.471-2.436zM830.039 123.252l-.056-4.373-3.204-4.597-4.206 1.7-.778 3.355 3.349 3.623zM849.847 92.102l5.06-1.118-2.697-6.654-3.591-3.087-2.707 2.411-.696 4.124.115 2.736zM1003.147 783.577l-12.996 15.316-.326.392-.404-.307-7.336-5.586-9.266.523-.18.01-.15-.105-5.288-3.62-.03-.02-6.292-4.951-6.639-.808-.403-.045-.064-.406-.812-5.347-.068-.474.458-.127 5.202-1.43-1.927-7.85-.12-.475.472-.156 6.231-2.077.46-.155.202.44 4.426 9.758 12.205-6.66.432-.231.271.408 3.905 5.926.006.007 3.415 3.37 4.678-1.556.1-.033.088.003 6.381.24.291.01.152.26 2.98 5.143.192.325-.246.288zm143.435-143.202l.141-.101h.173l12.063.102-10.358-26.102-5.92-4.44-10.837 4.444-.549.23-.164-.578-3.455-11.824-16.76-7.442-8.564 1.093-14.362 28.05-.032.063-.052.054-9.328 10.094-.396.426-.4-.423-6.208-6.692-4.392 7.168-.159.256h-.304l-12.259.03-8.55 6.045-.395.276-.317-.365-7.633-8.74-.153-.18.026-.227 2.31-21.8.01-.085.04-.087 7.844-16.56-9.253-3.154-.232-.082-.09-.228-4.094-10.096-.066-.171.043-.177 3.912-13.883-7.437-4.552-.278-.173.025-.327 1.013-13.747-5.208-10.965-4.588 2.957-.159.105-.186-.02-6.437-.738-.5-.055.02-.503.26-6.952.01-.291.261-.146 5.125-3-3.909-6.431-3.63 3.739-.124.125-.174.03-8.35 1.432-7.63 3.055.102 8.344 1.953 5.7.074.215-.102.199-4.618 9.23 3.98 6.936.064.116.007.123.496 10.123.007.155-.074.136-7.063 12.476-.075.134-.125.07-11.213 6.336 3.854 7.157.17.31-.222.276-4.904 6.196 2.166 8.34 9.264 3.335.294.104.057.307 1.084 6.194.051.276-.2.198-7.164 7.057-.58 5.066 4.35 1.362.272.084.082.277 1.947 6.668.094.315-.246.225-5.358 4.973-2.45 7.675-.21.67-.59-.376-9.434-6.07-.14-.09-.069-.158-4.225-10.212-9.05 3.708-1.596 8.435-.026.168-.116.11-20.386 20.594.488 9.887.018.39-.37.136-5.346 1.997-.482.18-.2-.473-6.913-16.585-5.417 6.554-.16.196-.253-.003-20.349.106-8.598 14.508 8.512 14.55.114.194-.058.214-2.05 7.828-.095.363-.369.036-8.99.94-5.45 9.554-2.733 26.154-.057.55-.55-.077-8.597-1.186-6.244 2.628-.194 5.13 14.272 13.782 21.603 16.306 8.96-.248.457-.005.085.45.291 1.513 5.724.35 10.432-6.873.442-.294.297.44 6.104 9.017 18.927 16.168 9.533.358.261.01.151.21 7.008 9.698.09.123.006.153.57 7.288 10.134 2.37.331.079.07.333 1.132 5.376 9.011-2.631 2.01-6.04-9.297-.348-.335-.013-.137-.316-1.893-4.494-.189-.441.426-.232 4.516-2.49.094-.052.107-.008 6.09-.64 12.483-7.945 4.605-6.517.04-.055.057-.047 9.323-7.804 2.242-5.97.021-.055.032-.042 5.64-8.93.013-.018 6.817-9.712 6.136-15.034 4.622-12.078-3.97-10.395-.045-.134.02-.135 1.545-10.916.02-.16.113-.127 5.955-6.552-6.557-5.954-.145-.135-.025-.186-.893-6.47-.078-.562.568-.044 11.763-1.025 1.688-6.75.145-.597.571.227 6.168 2.443 11.063-3.23 3.19-6.848.25-.53.503.298 5.44 3.16 5.537.208.268.01.151.23 3.738 5.518 23.385-5.374 2.932-9.802.142-.466.474.092 4.6.88 6.096-6.36.847-.88.078 1.22.444 7.172 14.028 2.699 8.514-5.461.763-10.76-8.595-6.588-.212-.157-.002-.26-.245-13.628-.002-.28.231-.164 5.052-3.594zM1680.856 502.875l-2.672-13.378-9.156-9.868 1.393-14.09 5.051-3.852-15.712-19.642.79-13.245 7.197-7.235-1.45-7.558-13.684-4.557-13.179-25.603 3.547-2.177 4.097 6.215 7.075-4.065-10.279-10.486-5.888 2.952-8.979-6.319-.162.168-4.34-11.385-9.513-.356-1.403 6.584-6.03-.805-18.125-39.935 1.62-12.348 7.847-1.438-4.899-23.274 12.028 10.267 1.324-27.661 10.178-9.72 14.708.266-7.584-20.78-2.337-44.232-9.622 2.526-.214.056-.189-.11-6.94-3.992-13.562 34.692-.146.365-.39-.026-15.556-.983-14.54 3.85-.49.133-.157-.488-4.197-13.05-19.43.435-3.705 6.04-.124.2-.233.047-13.48 2.642-2.576 6.857-.118.322-.348.023-7.298.492-2.609 7.998-.092.272-.275.076-8.49 2.355 1.194 8.313 11.392 17.966 7.42 1.853.284.071.094.278 4.613 13.572 8.527-.457.235-.01.166.17 5.472 5.473.125.123.026.175 1.264 8.31 7.65 4.707 5.603-4.846-14.037-18.133 3.888-11.401 14.31-4.37-7.92 10.963 1.405 8.712 10.95 8.204 5.176.481-.59 8.058 4.855 1.34-5.478 22.885 4.865 8.84.722 26.87 3.388 17.445 4.825 17.5-6.603 6.678 1.767 6.704-3.628 4.483 8.54 10.71.827 16.483 11.74 14.31v-.002l13.925 16.966 77.55 56.311zM458.014 480.883l.029-.327.303-.124 12.104-4.96 14.298-13.01 9.663-11.835 1.872-3.88-9.94-1.778-.146-.027-.113-.1-15.9-14.073-6.005 3.027-.153.077-.168-.026-16.09-2.444.02-.11-10.569-6.003-.085-.046-.065-.08-9.493-11.55-12.817-1.71-4.158 9.26 8.635 12.354.09.131.002.164.218 8.6.01.378-.36.134-15.189 5.734-.189 5.037 3.97 3.745.361.336-4.933 6.106-.01-.043-4.257 4.435-6.048 13.994-.04.098-.072.071-4.827 4.794-3.281 7.695-.04.092-.07.077-5.255 5.354-.18.188-.263-.024-4.3-.459-.551 10.636 4.83.032.554.002-.319 8.453 10.567.876.473.042.02.473.25 6.02 4.454 1.256.324.091.058.326.56 3.057.01.033.493 4.266 1.475 2.185 4.063-.897 9.303-10.2.142-.164.219-.012 10.13-.68 6.776-9.893.406-.588.45.547 4.406 5.283 4.16-2.478 1.856-7.079.106-.399.406-.002 11.22-.114 3.161-3.656 1.09-7.715.026-.167.116-.12 5.15-5.533-3.38-7.169-.062-.133.012-.142zM76.115 185.497l.352 1.424 3.616 14.613 8.473 20.977 13.786-1.203 2.994-5.294-2.195-20.412-8.873 2.345-1.03-8.622-6.786-6.994-3.047 6.12"/>
        <g transform="translate(0 .737)">
            <path fill="#FFCA0A" d="M1022.532 326.862c-1.202.37-2.41.732-3.649 1.046-.974.247-1.963.433-2.959.593.22.16.437.325.66.484 2.437 1.761 4.924 3.455 7.427 5.125l.176-4.71-1.655-2.538z"/>
            <path fill="#EAEAEB" d="M955.6 650.316l1.6-8.475-.046-.273 3.788-1.572c-.917-2.438-1.046-5.36.005-8.608.151-.473.338-.916.525-1.356-.096-.079-.2-.146-.294-.23-1.385-1.226-2.866-2.367-4.377-3.448-2.663 1.16-5.766 1.326-8.877-.047-4.802-2.119-9.674-4.174-14.7-5.709-2.028-.62-4.098-1.188-6.197-1.557-1.627.696-3.235 1.423-4.713 2.365-1.837 1.17-4.08 1.78-6.38 1.89-.506.096-1.015.16-1.522.197-1.341.333-2.822.45-4.455.261-4.572-.527-8.953-.048-13.146-.015-.981 1.514-1.612 3.684-2.495 4.926-1.215 1.706-3.683 1.88-5.3.7-1.906-1.393-3.264-3.059-5.761-2.464-1.436.342-3.312.978-4.81.643-3.393-.759-5.235-3.116-6.647-6.207-2.923-6.399-.173-13.7 4.001-18.98a42.165 42.165 0 0 0-.222-1.555c-.303-.179-1.105-1.042-2.726-2.273a41.62 41.62 0 0 1-4.622-3.776c-2.216-1.96-4.704-3.528-7.115-5.19l-2.077.88c-2.303 1.441-5.663.581-6.048-2.452-.643-5.06-6.582-4.532-8.438-1.28-1.293 2.264-2.76 4.25-4.492 6.2-2.372 2.672-5.154 4.361-8.644 4.976-8.928 1.574-12.793-15.152-11.94-21.059.5-3.463 3.414-10.67.953-13.398-1.62-1.795-2.89-3.436-4.02-5.555-1.08-2.026-.186-5.517 1.615-6.87 5.687-4.28 15.634-4.033 22.264-2.444.054.013.1.038.154.054 1.064-3.254 1.72-6.102 1.137-9.95-.318-2.107.298-4.454.837-6.468 1.129-4.219 2.213-8.349 3.163-12.516-.082-3.402-.649-6.526-2.524-8.494-6.692-7.023-19.438-11.356-28.16-15.27-2.24-1.005-3.102-3.787-1.58-5.8 4.36-5.777-3.087-12.047-.35-17.859 2.627-5.58 6.503-10.332 8.625-16.182.378-1.044 1.074-1.684 1.881-2.013.235-.998.923-1.88 2.203-2.326 8.967-3.119 15.72-5.196 22.588-12.246.017-.016.034-.02.05-.035a3.969 3.969 0 0 1 1.197-1.338 50.765 50.765 0 0 1 2.497-5.842c-.702-.399-1.415-.856-2.207-1.363-4.938 2.046-9.351 2.116-14.968.73-4.056-1-8.865-2.769-13.133-1.804-2.82.638-5.293 1.233-8.167 1.011-4.216-.324-5.051-5.843-5.841-8.906-1.603-6.215-11.368-17.807-15.933-7.02-1.322 3.13-2.281 6.206-2.83 9.571-.659 4.033-7.35 4.562-7.495.104-.242-7.558-5.324-11.325-9.099-17.22-.029-.046-.047-.094-.076-.14l-9.78 2.244 2.977 7.89.072.188-.068.188-3.81 10.134 8.183 11.502.125.176-.03.213-2.94 20.334 6.542 9.745.126.191-.044.222-3.127 14.495 9.98 8.088.163.13.027.22 1.36 10.588.032.225-.14.181-9.6 12.252-1.288 11.224-.019.161-.103.126-14.755 17.368-.524 13.93 11.251 7.041.392.246-.184.421-2.258 5.218-.093.208-.21.085-10.466 4.03-.068.02-.077.011-8.836.766 3.303 13.581.065.264-.183.212-3.923 4.54-.266 7.088 27.41 5.316.278.054.111.26 7.462 16.948 7.409 1.21.508.081-.06.507-.72 6.264-.026.223-.17.136-11.258 9.072.622 7.78 5.83 6.287 8.949 3.2.482.173-.154.491-1.649 5.26-.053.177-.15.101-10.236 7.21-.841 9.88-.026.333-.057.017-1.587 6.261 7.981 17.064.167.353-.288.27-4.514 4.182-.063.067-.088.033-3.74 1.592 3.832 12.875 8.293.311 8.212-.654.19-.017.157.113 5.186 3.578.39.27-.216.414-3 5.91 5.767 9.645.058.095.015.106 1.137 8.24 2.556 8.76.021.07v.062l.25 6.3.014.347-.317.158-7.103 3.444-.21 5.594-.05.103-2.616 5.225-.1.202-.215.071-7.631 2.54-4.384 8.423 11.793 8.984 19.846 3.354 8.923-6.888.102-.076.121-.028 4.657-.91.442-4.592.025-.273.239-.14 7.245-4.26-.365-4.99-.036-.459.454-.102 5.337-1.189 1.952-6.982.106-.375.385-.023 26.476-1.328 1.548-6.027-14.239-13.75-.171-.176.236-6.275.313-.137 6.697-2.824.139-.056.141.017 8.192 1.136 2.687-25.71.014-.105.055-.105 5.646-9.89.135-.245.274-.026 8.894-.933 1.9-7.255-8.557-14.629-.158-.275.16-.274 8.916-15.04.154-.262.304-.002 20.399-.1 5.827-7.048.567-.687.34.82 7.055 16.927 4.495-1.676-.48-9.73-.01-.238.168-.166 20.43-20.638z"/>
            <path fill="#EAEAEB" d="M983.456 646.487l.097-.096 5.223-4.84-1.771-6.067-4.505-1.41-.423-.133.047-.44.654-5.688.027-.187.134-.137 7.102-6.993-.987-5.615-9.241-3.328-.27-.095-.07-.27-2.305-8.875-.066-.257.169-.212 4.852-6.12-3.937-7.315-.25-.463.458-.262 11.54-6.514 6.906-12.204-.481-9.85-4.063-7.072-.14-.247.128-.256 4.653-9.29-1.91-5.574-.026-.08.427-.088.319-8.786v-.367l-.09-.137 7.812-3.21-.05-.024.003-.012 8.199-1.409 3.66-3.788-2.783-3.756-6.334 3.88-.333.204-.3-.253-5.814-4.932-14.456-.543.09-.6 1.17-7.86.025-.16.103-.122 8.663-9.709 2.696-6.452-5.22-3.908-.222-.17.284-7.537-4.498-5.284-.178-.21.066-.268 2.509-10.117-5.28-4.388-.447-.37.409-.417 8.519-8.732-1.607-38.358-9.013-15.078 4.882-2.29 11.876-8.956.184-.137.217.034 6.774 1.055 2.916-11.849.023-.105.059-.082 3.55-4.909 1.09-6.693.038-.215.174-.132 14.56-10.694-5.802-7.517-.12-.156.436-11.59-11.666-17.889-.065-.092-.02-.12-1.355-8.937-3.593-5.182-.12-.168.028-.198.593-5.03-7.746 3.516-8.893 6.303-11.95 3.015-4.911 7.896.718-11.517 24.856-23.888 14.159-23.424 6.854-21.1-17.66-21.736-17.267-1.225-6.378 8.417-6.962.896 5.742-14.507-14.06-2.26 4.86-6.455-8.374-7.53-7.89 2.591-13.088 17.98 2.472 11.06-13.29.366.157 3.47 4.629 7.391-9.435-2.376-5.074 4.425-10.876-2.427-1.254-4.953-15.577-.298-.048 8.946-18.833 1.89-13.06 9.61-9.81-.079-7.444 6.071-3.661 12.85 5.642 11.181-9.31 1.958-24.345-4.955-14.113-.82-4.617 7.62-1.334 20.154 8.609 8.984 3.947 10.25-12.395-.466-9.918-20.289-7.838.165.055 1.01 6.272 14.737.275.653-.7.09-7.384.946-1.951 8.823 6.24 14.666.072.178-.051.183-1.97 6.788-.074.25-.243.1-16.307 6.57-2.321 7.991 9.92 14.174 11.702 3.396.333.097.05.347 1.655 14.877-1.202 1.884v-.013l-4.198 10.433.08.251-.172.061-10.874 2.507 9.803-2.245.088.141c3.775 5.895 8.863 9.662 9.105 17.22.143 4.458 6.839 3.93 7.497-.104.549-3.364 1.509-6.442 2.832-9.57 4.564-10.788 14.33.804 15.932 7.02.79 3.063 1.626 8.581 5.843 8.905 2.874.222 5.346-.373 8.167-1.01 4.269-.966 9.077.802 13.133 1.803 5.616 1.386 10.029 1.316 14.968-.73.792.508 1.505.964 2.208 1.363a50.417 50.417 0 0 0-2.498 5.842 3.981 3.981 0 0 0-1.198 1.338c-.015.014-.033.02-.048.035-6.868 7.05-13.621 9.127-22.588 12.246-1.28.445-1.97 1.328-2.203 2.326-.808.33-1.503.97-1.881 2.013-2.122 5.85-5.998 10.602-8.626 16.182-2.737 5.812 4.71 12.083.349 17.858-1.521 2.015-.66 4.796 1.58 5.801 8.722 3.914 21.469 8.247 28.162 15.27 1.875 1.968 2.44 5.092 2.522 8.494-.95 4.167-2.033 8.297-3.161 12.516-.54 2.014-1.156 4.361-.838 6.467.582 3.85-.072 6.697-1.138 9.951-.053-.016-.098-.04-.154-.054-6.63-1.589-16.576-1.836-22.264 2.444-1.8 1.353-2.694 4.844-1.614 6.87 1.13 2.12 2.4 3.76 4.02 5.555 2.462 2.727-.453 9.935-.953 13.398-.854 5.907 3.012 22.633 11.94 21.06 3.489-.616 6.27-2.305 8.645-4.977 1.732-1.95 3.198-3.936 4.49-6.2 1.857-3.252 7.797-3.78 8.439 1.28.386 3.033 3.744 3.893 6.048 2.451l2.076-.879c2.412 1.662 4.9 3.23 7.115 5.191a41.713 41.713 0 0 0 4.623 3.775c1.622 1.231 2.422 2.094 2.725 2.273.087.524.158 1.04.224 1.555-4.174 5.28-6.925 12.581-4.001 18.981 1.412 3.09 3.254 5.447 6.645 6.206 1.499.336 3.375-.3 4.81-.643 2.498-.595 3.855 1.071 5.763 2.464 1.617 1.181 4.085 1.006 5.298-.7.884-1.24 1.514-3.412 2.495-4.926 4.194-.033 8.576-.512 13.148.016 1.632.187 3.112.071 4.453-.262a13.39 13.39 0 0 0 1.523-.198c2.3-.109 4.543-.719 6.38-1.889 1.479-.94 3.086-1.669 4.713-2.365 2.1.37 4.169.937 6.198 1.557 5.025 1.535 9.898 3.59 14.7 5.71 3.11 1.372 6.213 1.206 8.876.046 1.51 1.081 2.993 2.222 4.377 3.448.093.084.198.151.295.23-.188.44-.374.883-.527 1.356-1.05 3.247-.921 6.17-.005 8.608l6.913-2.87.205.497 4.367 10.55 8.707 5.598 2.28-7.143.043-.14z"/>
            <mask id="b" fill="#fff">
                <use xlink:href="#a"/>
            </mask>
            <path fill="#B83A28" d="M198.384 376.017h21.015v-7.147h-21.015z" mask="url(#b)"/>
            <path fill="#B83A28" d="M203.687 376.017h10.362v-15.83h-10.362z" mask="url(#b)"/>
            <path fill="#B83A28" d="M214.312 363.08h-10.889l-.084-3.5h11.057zM212.042 359.58h-6.348l.084-4.293h6.18zM214.049 359.58h-1.027l.513-2.706zM204.714 359.58h-1.027l.514-2.706zM211.575 355.287h-5.414l.168-6.861h5.078zM206.534 348.426l2.334-11.995 2.333 11.995z" mask="url(#b)"/>
            <path fill="#F3F4F4" d="M207.215 348.426l1.653-11.995 1.652 11.995z" mask="url(#b)"/>
            <path fill="#B83A28" d="M207.7 348.426l1.168-11.995 1.167 11.995z" mask="url(#b)"/>
            <path fill="#F3F4F4" d="M210.77 357.126a1.878 1.878 0 1 1-3.757 0 1.878 1.878 0 0 1 3.756 0" mask="url(#b)"/>
            <path fill="#B83A28" d="M210.382 357.126a1.492 1.492 0 1 1-2.984 0 1.492 1.492 0 0 1 2.984 0" mask="url(#b)"/>
            <path fill="#F3F4F4" d="M210.986 351.441h-.802v-1.77h.668zM206.884 349.672h.668v1.77h-.802zM206.535 352.344h4.667v-.294h-4.667zM206.616 354.487h.153v-1.457h-.153zM207.019 354.487h.615v-1.457h-.615zM208.029 354.487h1.721v-1.457h-1.721zM210.105 354.487h.615v-1.457h-.615zM210.967 354.487h.153v-1.457h-.153zM204.389 368.102h.605v-4.991h-.605zM212.796 368.081h.605v-4.991h-.605z" mask="url(#b)"/>
            <path fill="#B83A28" d="M208.868 334.904l.327.663.732.107-.53.515.125.73-.654-.345-.655.345.125-.73-.529-.515.732-.107z" mask="url(#b)"/>
            <path fill="#F3F4F4" d="M204.389 376.017h.605v-5.472h-.605zM212.735 376.017h.605v-5.472h-.605zM208.436 372.449h.911v-1.002h-.911zM205.646 365.964h6.445v-.379h-6.445zM209.873 373.929a.969.969 0 0 0-.982-.955.969.969 0 0 0-.982.955v2.089h1.964v-2.089zM213.593 361.018a.535.535 0 0 0-.542-.527.535.535 0 0 0-.542.527v1.151h1.084v-1.15zM204.226 361.018c0-.29.243-.527.542-.527.298 0 .54.236.54.527v1.151h-1.082v-1.15zM207.536 362.35c0-.67.607-1.214 1.355-1.214.749 0 1.355.543 1.355 1.214v2.654h-2.71v-2.653zM208.108 349.907c0-.388.35-.702.783-.702.433 0 .783.314.783.702v1.534h-1.566v-1.534zM208.76 369.184h.225v-.314h-.225zM208.166 368.87h-.03v1.01h.239v-1.01h-.03zM207.535 369.184h.225v-.314h-.225zM206.942 368.87h-.031v1.01h.239v-1.01h-.03zM206.31 369.184h.225v-.314h-.225zM205.717 368.87h-.031v1.01h.239v-1.01h-.03zM205.085 369.184h.225v-.314h-.225zM204.492 368.87h-.03v1.01h.239v-1.01h-.03zM203.86 369.184h.225v-.314h-.225zM203.268 368.87h-.031v1.01h.239v-1.01h-.03zM202.636 369.184h.225v-.314h-.225zM202.042 368.87h-.03v1.01h.239v-1.01h-.03zM201.411 369.184h.225v-.314h-.225zM200.818 368.87h-.031v1.01h.239v-1.01h-.03zM200.186 369.184h.225v-.314h-.225zM199.593 368.87h-.031v1.01h.239v-1.01h-.03zM198.961 369.184h.225v-.314h-.225zM198.368 368.87h-.031v1.01h.24v-1.01h-.031zM209.391 368.87h-.031v1.01h.24v-1.01h-.031zM209.984 369.184h.225v-.314h-.225zM210.616 368.87h-.03v1.01h.239v-1.01h-.03zM211.209 369.184h.225v-.314h-.225zM211.84 368.87h-.03v1.01h.239v-1.01h-.03zM212.434 369.184h.225v-.314h-.225zM213.066 368.87h-.031v1.01h.239v-1.01h-.03zM213.659 369.184h.225v-.314h-.225zM214.29 368.87h-.03v1.01h.239v-1.01h-.03zM214.883 369.184h.225v-.314h-.225zM215.515 368.87h-.031v1.01h.24v-1.01h-.031zM216.108 369.184h.225v-.314h-.225zM216.74 368.87h-.03v1.01h.239v-1.01h-.03zM217.333 369.184h.225v-.314h-.225zM217.965 368.87h-.031v1.01h.239v-1.01h-.03zM218.558 369.184h.225v-.314h-.225zM219.19 368.87h-.032v1.01h.24v-1.01h-.03z" mask="url(#b)"/>
        </g>
        <text fill="#231F20" font-family="OpenSans, Open Sans" font-size="18" transform="translate(0 .5)">
            <tspan x="131.09" y="406">Место жительства</tspan>
        </text>
        <text fill="#231F20" font-family="OpenSans, Open Sans" font-size="18" transform="translate(0 .5)">
            <tspan x="330.482" y="510">Место регистрации</tspan>
        </text>
        <path fill="#B83A28" d="M424.867 476.806a8.476 8.476 0 0 1-16.952 0 8.476 8.476 0 1 1 16.952 0"/>
    </g>
</svg>
