<svg width="20px" height="17px" viewBox="0 0 20 17" version="1.1" xmlns="http://www.w3.org/2000/svg" xmlns:xlink="http://www.w3.org/1999/xlink">
    <g id="Symbols" stroke="none" stroke-width="1" fill="none" fill-rule="evenodd">
        <g id="1440-/-left_menu" transform="translate(-29.000000, -173.000000)" fill="#505E77">
            <g id="left_menu">
                <g id="ic_home_24px" transform="translate(29.000000, 173.000000)">
                    <g id="Shape">
                        <polygon fill-rule="nonzero" points="8 17 8 11 12 11 12 17 17 17 17 9 20 9 10 0 0 9 3 9 3 17"></polygon>
                    </g>
                </g>
            </g>
        </g>
    </g>
</svg>
